^F:\RMX_ALL\RMX_R8\TOOLS\TEXTFIELDREPLACETOOL\FRMMAIN.RESX
^F:\RMX_ALL\RMX_R8\TOOLS\TEXTFIELDREPLACETOOL\FRMLOGIN.RESX
^F:\RMX_ALL\RMX_R8\TOOLS\TEXTFIELDREPLACETOOL\PROPERTIES\RESOURCES.RESX
C:\WINDOWS\MICROSOFT.NET\FRAMEWORK\V2.0.50727\CONFIG\SECURITY.CONFIG
^C:\USERS\KUSHAL SOLANKI\DESKTOP\TEXTFIELDREPLACETOOL\TEXTFIELDREPLACETOOL\PROPERTIES\RESOURCES.RESX
^C:\USERS\KUSHAL SOLANKI\DESKTOP\TEXTFIELDREPLACETOOL\TEXTFIELDREPLACETOOL\FRMLOGIN.RESX
^C:\USERS\KUSHAL SOLANKI\DESKTOP\TEXTFIELDREPLACETOOL\TEXTFIELDREPLACETOOL\FRMMAIN.RESX
C:\WINDOWS\MICROSOFT.NET\FRAMEWORK64\V2.0.50727\MSCORWKS.DLL
C:\WINDOWS\MICROSOFT.NET\FRAMEWORK64\V4.0.30319\CLR.DLL
C:\PROGRAM FILES (X86)\MICROSOFT SDKS\WINDOWS\V7.0A\BIN\RESGEN.EXE.CONFIG
C:\PROGRAM FILES (X86)\MICROSOFT SDKS\WINDOWS\V7.0A\BIN\RESGEN.EXE
C:\WINDOWS\MICROSOFT.NET\FRAMEWORK64\V2.0.50727\CONFIG\MACHINE.CONFIG
C:\WINDOWS\MICROSOFT.NET\FRAMEWORK64\V2.0.50727\CONFIG\SECURITY.CONFIG
C:\WINDOWS\MICROSOFT.NET\FRAMEWORK64\V2.0.50727\CONFIG\SECURITY.CONFIG.CCH
C:\WINDOWS\MICROSOFT.NET\FRAMEWORK64\V2.0.50727\CONFIG\ENTERPRISESEC.CONFIG
C:\WINDOWS\MICROSOFT.NET\FRAMEWORK64\V2.0.50727\CONFIG\ENTERPRISESEC.CONFIG.CCH
C:\WINDOWS\ASSEMBLY\NATIVEIMAGES_V2.0.50727_64\INDEX7A3.DAT
C:\WINDOWS\SYSTEM32\L_INTL.NLS
C:\WINDOWS\ASSEMBLY\PUBPOL47.DAT
C:\WINDOWS\ASSEMBLY\GAC_64\MSCORLIB\2.0.0.0__B77A5C561934E089\SORTTBLS.NLP
C:\WINDOWS\ASSEMBLY\GAC_64\MSCORLIB\2.0.0.0__B77A5C561934E089\SORTKEY.NLP
C:\WINDOWS\MICROSOFT.NET\FRAMEWORK\V2.0.50727\ACCESSIBILITY.DLL
C:\WINDOWS\MICROSOFT.NET\FRAMEWORK\V2.0.50727\MSCORLIB.DLL
C:\USERS\KUSHAL SOLANKI\DESKTOP\TEXTFIELDREPLACETOOL\TEXTFIELDREPLACETOOL\BIN\DEBUG\ORACLE.DATAACCESS.DLL
C:\WINDOWS\SYSTEM32\RSAENH.DLL
C:\USERS\KUSHAL SOLANKI\DESKTOP\TEXTFIELDREPLACETOOL\TEXTFIELDREPLACETOOL\BIN\DEBUG\RISKMASTER.COMMON.DLL
C:\USERS\KUSHAL SOLANKI\DESKTOP\TEXTFIELDREPLACETOOL\TEXTFIELDREPLACETOOL\BIN\DEBUG\RISKMASTER.DB.DLL
C:\USERS\KUSHAL SOLANKI\DESKTOP\TEXTFIELDREPLACETOOL\TEXTFIELDREPLACETOOL\BIN\DEBUG\RISKMASTER.EXCEPTIONTYPES.DLL
C:\USERS\KUSHAL SOLANKI\DESKTOP\TEXTFIELDREPLACETOOL\TEXTFIELDREPLACETOOL\BIN\DEBUG\RISKMASTER.SECURITY.DLL
C:\PROGRAM FILES (X86)\REFERENCE ASSEMBLIES\MICROSOFT\FRAMEWORK\V3.5\SYSTEM.CORE.DLL
C:\WINDOWS\MICROSOFT.NET\FRAMEWORK\V2.0.50727\SYSTEM.DATA.DLL
C:\WINDOWS\MICROSOFT.NET\FRAMEWORK\V2.0.50727\SYSTEM.DEPLOYMENT.DLL
C:\WINDOWS\MICROSOFT.NET\FRAMEWORK\V2.0.50727\SYSTEM.DLL
C:\WINDOWS\MICROSOFT.NET\FRAMEWORK\V2.0.50727\SYSTEM.DRAWING.DLL
C:\WINDOWS\MICROSOFT.NET\FRAMEWORK\V2.0.50727\SYSTEM.WINDOWS.FORMS.DLL
C:\WINDOWS\MICROSOFT.NET\FRAMEWORK\V2.0.50727\SYSTEM.XML.DLL
^F:\PROJECTS\TEXTFIELDREPLACETOOL\TEXTFIELDREPLACETOOL\PROPERTIES\RESOURCES.RESX
C:\WINDOWS\MICROSOFT.NET\FRAMEWORK\V2.0.50727\CONFIG\SECURITY.CONFIG
^F:\PROJECTS\TEXTFIELDREPLACETOOL\TEXTFIELDREPLACETOOL\FRMLOGIN.RESX
^F:\PROJECTS\TEXTFIELDREPLACETOOL\TEXTFIELDREPLACETOOL\FRMMAIN.RESX
C:\WINDOWS\MICROSOFT.NET\FRAMEWORK\V2.0.50727\CONFIG\SECURITY.CONFIG
