{
	"fields":[
		{"dataType":"string","title":"<form style='margin:0px'><input type='radio' name='radio' id='selectPageYes' onclick='selectPage(true)'/>Yes<input type='radio' name='radio' id='selectPageNo' onclick='selectPage(false)'/>No</form>","nosort":true},
		{"title":"Item","dataType":"int"},
		{"title":"Date","dataType":"date"},
		{"title":"Time","dataType":"time"},
		{"title":"Rate Period"},
		{"title":"Phone Number"},
		{"title":"Minutes","dataType":"int"},
		{"title":"Total Charges","dataType":"float"}
	],
	"rows":[
		{"cells":[{"v":"<form style='margin:0px'><input type='radio' name='radio'/>Yes<input type='radio' name='radio'/>No</form>"},{"v":1},{"v":"11/08/2006"},{"v":"09:30AM"},{"v":"P"},{"v":"(911)504-7207"},{"v":1},{"v":0.5}]},
		{"cells":[{"v":"<form style='margin:0px'><input type='radio' name='radio'/>Yes<input type='radio' name='radio'/>No</form>"},{"v":2},{"v":"11/08/2006"},{"v":"10:39AM"},{"v":"P"},{"v":"(910)525-7522"},{"v":3},{"v":1.5}]},
		{"cells":[{"v":"<form style='margin:0px'><input type='radio' name='radio'/>Yes<input type='radio' name='radio'/>No</form>"},{"v":3},{"v":"11/08/2006"},{"v":"12:11PM"},{"v":"P"},{"v":"(981)483-3140"},{"v":5},{"v":0.7}]},
		{"cells":[{"v":"<form style='margin:0px'><input type='radio' name='radio'/>Yes<input type='radio' name='radio'/>No</form>"},{"v":4},{"v":"11/08/2006"},{"v":"03:41PM"},{"v":"P"},{"v":"(910)504-8168"},{"v":2},{"v":0.2}]},
		{"cells":[{"v":"<form style='margin:0px'><input type='radio' name='radio'/>Yes<input type='radio' name='radio'/>No</form>"},{"v":5},{"v":"11/09/2006"},{"v":"09:50AM"},{"v":"P"},{"v":"(910)642-8345"},{"v":1},{"v":0.1}]},
		{"cells":[{"v":"<form style='margin:0px'><input type='radio' name='radio'/>Yes<input type='radio' name='radio'/>No</form>"},{"v":6},{"v":"11/09/2006"},{"v":"02:49PM"},{"v":"P"},{"v":"(000)000-0086"},{"v":1},{"v":1.23}]},
		{"cells":[{"v":"<form style='margin:0px'><input type='radio' name='radio'/>Yes<input type='radio' name='radio'/>No</form>"},{"v":7},{"v":"11/09/2006"},{"v":"03:05PM"},{"v":"P"},{"v":"(910)504-8168"},{"v":6},{"v":0.4}]},
		{"cells":[{"v":"<form style='margin:0px'><input type='radio' name='radio'/>Yes<input type='radio' name='radio'/>No</form>"},{"v":8},{"v":"11/09/2006"},{"v":"03:53PM"},{"v":"P"},{"v":"(910)873-0894"},{"v":5},{"v":2}]},
		{"cells":[{"v":"<form style='margin:0px'><input type='radio' name='radio'/>Yes<input type='radio' name='radio'/>No</form>"},{"v":9},{"v":"11/10/2006"},{"v":"11:35AM"},{"v":"P"},{"v":"(910)525-7522"},{"v":5},{"v":1}]},
		{"cells":[{"v":"<form style='margin:0px'><input type='radio' name='radio'/>Yes<input type='radio' name='radio'/>No</form>"},{"v":10},{"v":"11/10/2006"},{"v":"09:41PM"},{"v":"O"},{"v":"(000)000-0086"},{"v":1},{"v":0.1}]},
		{"cells":[{"v":"<form style='margin:0px'><input type='radio' name='radio'/>Yes<input type='radio' name='radio'/>No</form>"},{"v":11},{"v":"11/10/2006"},{"v":"09:42PM"},{"v":"O"},{"v":"(910)292-6349"},{"v":2},{"v":0.1}]},
		{"cells":[{"v":"<form style='margin:0px'><input type='radio' name='radio'/>Yes<input type='radio' name='radio'/>No</form>"},{"v":12},{"v":"11/11/2006"},{"v":"11:14AM"},{"v":"P"},{"v":"(910)525-7522"},{"v":1},{"v":0.1}]},
		{"cells":[{"v":"<form style='margin:0px'><input type='radio' name='radio'/>Yes<input type='radio' name='radio'/>No</form>"},{"v":13},{"v":"11/12/2006"},{"v":"04:24PM"},{"v":"W"},{"v":"(926)485-8854"},{"v":1},{"v":0.1}]},
		{"cells":[{"v":"<form style='margin:0px'><input type='radio' name='radio'/>Yes<input type='radio' name='radio'/>No</form>"},{"v":14},{"v":"11/12/2006"},{"v":"04:36PM"},{"v":"W"},{"v":"(926)485-8854"},{"v":1},{"v":0.1}]},
		{"cells":[{"v":"<form style='margin:0px'><input type='radio' name='radio'/>Yes<input type='radio' name='radio'/>No</form>"},{"v":15},{"v":"11/13/2006"},{"v":"02:46PM"},{"v":"W"},{"v":"(910)776-3005"},{"v":1},{"v":0.1}]},
		{"cells":[{"v":"<form style='margin:0px'><input type='radio' name='radio'/>Yes<input type='radio' name='radio'/>No</form>"},{"v":16},{"v":"11/14/2006"},{"v":"10:45AM"},{"v":"P"},{"v":"(910)504-7207"},{"v":1},{"v":0.1}]},
		{"cells":[{"v":"<form style='margin:0px'><input type='radio' name='radio'/>Yes<input type='radio' name='radio'/>No</form>"},{"v":17},{"v":"11/14/2006"},{"v":"11:27AM"},{"v":"P"},{"v":"(910)504-2167"},{"v":1},{"v":0.1}]},
		{"cells":[{"v":"<form style='margin:0px'><input type='radio' name='radio'/>Yes<input type='radio' name='radio'/>No</form>"},{"v":18},{"v":"11/14/2006"},{"v":"01:25PM"},{"v":"P"},{"v":"(910)525-7522"},{"v":4},{"v":0.1}]},
		{"cells":[{"v":"<form style='margin:0px'><input type='radio' name='radio'/>Yes<input type='radio' name='radio'/>No</form>"},{"v":19},{"v":"11/14/2006"},{"v":"06:41PM"},{"v":"P"},{"v":"(000)000-0086"},{"v":1},{"v":0.1}]},
		{"cells":[{"v":"<form style='margin:0px'><input type='radio' name='radio'/>Yes<input type='radio' name='radio'/>No</form>"},{"v":20},{"v":"11/15/2006"},{"v":"01:19PM"},{"v":"P"},{"v":"(910)504-7207"},{"v":2},{"v":0.1}]},
		{"cells":[{"v":"<form style='margin:0px'><input type='radio' name='radio'/>Yes<input type='radio' name='radio'/>No</form>"},{"v":21},{"v":"11/15/2006"},{"v":"01:26PM"},{"v":"P"},{"v":"(910)504-7207"},{"v":2},{"v":0.1}]},
		{"cells":[{"v":"<form style='margin:0px'><input type='radio' name='radio'/>Yes<input type='radio' name='radio'/>No</form>"},{"v":22},{"v":"11/15/2006"},{"v":"01:27PM"},{"v":"P"},{"v":"(910)717-4984"},{"v":3},{"v":0.1}]},
		{"cells":[{"v":"<form style='margin:0px'><input type='radio' name='radio'/>Yes<input type='radio' name='radio'/>No</form>"},{"v":23},{"v":"11/15/2006"},{"v":"03:21PM"},{"v":"P"},{"v":"(910)504-8168"},{"v":2},{"v":0.1}]},
		{"cells":[{"v":"<form style='margin:0px'><input type='radio' name='radio'/>Yes<input type='radio' name='radio'/>No</form>"},{"v":24},{"v":"11/15/2006"},{"v":"04:52PM"},{"v":"P"},{"v":"(910)525-7522"},{"v":3},{"v":0.1}]},
		{"cells":[{"v":"<form style='margin:0px'><input type='radio' name='radio'/>Yes<input type='radio' name='radio'/>No</form>"},{"v":25},{"v":"11/15/2006"},{"v":"05:54PM"},{"v":"P"},{"v":"(910)504-7207"},{"v":1},{"v":0.1}]},
		{"cells":[{"v":"<form style='margin:0px'><input type='radio' name='radio'/>Yes<input type='radio' name='radio'/>No</form>"},{"v":26},{"v":"11/15/2006"},{"v":"05:55PM"},{"v":"P"},{"v":"(910)504-2167"},{"v":1},{"v":0.1}]},
		{"cells":[{"v":"<form style='margin:0px'><input type='radio' name='radio'/>Yes<input type='radio' name='radio'/>No</form>"},{"v":27},{"v":"11/15/2006"},{"v":"05:58PM"},{"v":"P"},{"v":"(910)527-0883"},{"v":1},{"v":0.1}]},
		{"cells":[{"v":"<form style='margin:0px'><input type='radio' name='radio'/>Yes<input type='radio' name='radio'/>No</form>"},{"v":28},{"v":"11/15/2006"},{"v":"05:59PM"},{"v":"P"},{"v":"(910)710-1325"},{"v":1},{"v":0.1}]},
		{"cells":[{"v":"<form style='margin:0px'><input type='radio' name='radio'/>Yes<input type='radio' name='radio'/>No</form>"},{"v":29},{"v":"11/15/2006"},{"v":"06:00PM"},{"v":"P"},{"v":"(910)710-1325"},{"v":2},{"v":0.1}]},
		{"cells":[{"v":"<form style='margin:0px'><input type='radio' name='radio'/>Yes<input type='radio' name='radio'/>No</form>"},{"v":30},{"v":"11/16/2006"},{"v":"09:41AM"},{"v":"P"},{"v":"(910)525-7522"},{"v":2},{"v":0.1}]},
		{"cells":[{"v":"<form style='margin:0px'><input type='radio' name='radio'/>Yes<input type='radio' name='radio'/>No</form>"},{"v":31},{"v":"11/16/2006"},{"v":"10:44AM"},{"v":"P"},{"v":"(866)522-7941"},{"v":1},{"v":0.1}]},
		{"cells":[{"v":"<form style='margin:0px'><input type='radio' name='radio'/>Yes<input type='radio' name='radio'/>No</form>"},{"v":32},{"v":"11/16/2006"},{"v":"04:08PM"},{"v":"P"},{"v":"(910)525-7522"},{"v":1},{"v":0.1}]},
		{"cells":[{"v":"<form style='margin:0px'><input type='radio' name='radio'/>Yes<input type='radio' name='radio'/>No</form>"},{"v":33},{"v":"11/16/2006"},{"v":"06:49PM"},{"v":"P"},{"v":"(910)525-7522"},{"v":1},{"v":0.1}]},
		{"cells":[{"v":"<form style='margin:0px'><input type='radio' name='radio'/>Yes<input type='radio' name='radio'/>No</form>"},{"v":34},{"v":"11/17/2006"},{"v":"02:42PM"},{"v":"P"},{"v":"(910)525-7522"},{"v":9},{"v":0.1}]},
		{"cells":[{"v":"<form style='margin:0px'><input type='radio' name='radio'/>Yes<input type='radio' name='radio'/>No</form>"},{"v":35},{"v":"11/17/2006"},{"v":"02:55PM"},{"v":"P"},{"v":"(910)525-7522"},{"v":3},{"v":0.1}]},
		{"cells":[{"v":"<form style='margin:0px'><input type='radio' name='radio'/>Yes<input type='radio' name='radio'/>No</form>"},{"v":36},{"v":"11/17/2006"},{"v":"03:04PM"},{"v":"P"},{"v":"(910)525-7522"},{"v":2},{"v":0.1}]},
		{"cells":[{"v":"<form style='margin:0px'><input type='radio' name='radio'/>Yes<input type='radio' name='radio'/>No</form>"},{"v":37},{"v":"11/17/2006"},{"v":"03:17PM"},{"v":"P"},{"v":"(910)504-8168"},{"v":1},{"v":0.1}]},
		{"cells":[{"v":"<form style='margin:0px'><input type='radio' name='radio'/>Yes<input type='radio' name='radio'/>No</form>"},{"v":38},{"v":"11/17/2006"},{"v":"05:45PM"},{"v":"P"},{"v":"(910)776-3005"},{"v":1},{"v":0.1}]},
		{"cells":[{"v":"<form style='margin:0px'><input type='radio' name='radio'/>Yes<input type='radio' name='radio'/>No</form>"},{"v":39},{"v":"11/17/2006"},{"v":"05:56PM"},{"v":"P"},{"v":"(910)525-7522"},{"v":1},{"v":0.1}]},
		{"cells":[{"v":"<form style='margin:0px'><input type='radio' name='radio'/>Yes<input type='radio' name='radio'/>No</form>"},{"v":40},{"v":"11/18/2006"},{"v":"09:03AM"},{"v":"P"},{"v":"(910)504-7207"},{"v":2},{"v":0.1}]},
		{"cells":[{"v":"<form style='margin:0px'><input type='radio' name='radio'/>Yes<input type='radio' name='radio'/>No</form>"},{"v":41},{"v":"11/18/2006"},{"v":"09:15AM"},{"v":"P"},{"v":"(973)785-3080"},{"v":1},{"v":0.1}]},
		{"cells":[{"v":"<form style='margin:0px'><input type='radio' name='radio'/>Yes<input type='radio' name='radio'/>No</form>"},{"v":42},{"v":"11/18/2006"},{"v":"09:24AM"},{"v":"P"},{"v":"(913)960-1457"},{"v":1},{"v":0.1}]},
		{"cells":[{"v":"<form style='margin:0px'><input type='radio' name='radio'/>Yes<input type='radio' name='radio'/>No</form>"},{"v":43},{"v":"11/18/2006"},{"v":"11:45AM"},{"v":"P"},{"v":"(925)791-2200"},{"v":9},{"v":0.1}]},
		{"cells":[{"v":"<form style='margin:0px'><input type='radio' name='radio'/>Yes<input type='radio' name='radio'/>No</form>"},{"v":44},{"v":"11/18/2006"},{"v":"12:12PM"},{"v":"P"},{"v":"(925)791-2200"},{"v":1},{"v":0.1}]},
		{"cells":[{"v":"<form style='margin:0px'><input type='radio' name='radio'/>Yes<input type='radio' name='radio'/>No</form>"},{"v":45},{"v":"11/18/2006"},{"v":"02:40PM"},{"v":"P"},{"v":"(910)717-4984"},{"v":1},{"v":0.1}]},
		{"cells":[{"v":"<form style='margin:0px'><input type='radio' name='radio'/>Yes<input type='radio' name='radio'/>No</form>"},{"v":46},{"v":"11/18/2006"},{"v":"03:01PM"},{"v":"P"},{"v":"(866)522-7941"},{"v":5},{"v":0.1}]},
		{"cells":[{"v":"<form style='margin:0px'><input type='radio' name='radio'/>Yes<input type='radio' name='radio'/>No</form>"},{"v":47},{"v":"11/19/2006"},{"v":"04:14PM"},{"v":"W"},{"v":"(910)504-7207"},{"v":3},{"v":0.1}]},
		{"cells":[{"v":"<form style='margin:0px'><input type='radio' name='radio'/>Yes<input type='radio' name='radio'/>No</form>"},{"v":48},{"v":"11/20/2006"},{"v":"11:31AM"},{"v":"W"},{"v":"(000)000-0086"},{"v":1},{"v":0.1}]},
		{"cells":[{"v":"<form style='margin:0px'><input type='radio' name='radio'/>Yes<input type='radio' name='radio'/>No</form>"},{"v":49},{"v":"11/20/2006"},{"v":"11:32AM"},{"v":"W"},{"v":"(000)000-0086"},{"v":1},{"v":0.1}]},
		{"cells":[{"v":"<form style='margin:0px'><input type='radio' name='radio'/>Yes<input type='radio' name='radio'/>No</form>"},{"v":50},{"v":"11/20/2006"},{"v":"11:35AM"},{"v":"W"},{"v":"(910)525-7522"},{"v":2},{"v":0.1}]},
		{"cells":[{"v":"<form style='margin:0px'><input type='radio' name='radio'/>Yes<input type='radio' name='radio'/>No</form>"},{"v":51},{"v":"11/20/2006"},{"v":"11:50AM"},{"v":"W"},{"v":"(910)525-7522"},{"v":2},{"v":0.1}]},
		{"cells":[{"v":"<form style='margin:0px'><input type='radio' name='radio'/>Yes<input type='radio' name='radio'/>No</form>"},{"v":52},{"v":"11/20/2006"},{"v":"12:11PM"},{"v":"W"},{"v":"(910)525-7522"},{"v":1},{"v":0.1}]},
		{"cells":[{"v":"<form style='margin:0px'><input type='radio' name='radio'/>Yes<input type='radio' name='radio'/>No</form>"},{"v":53},{"v":"11/20/2006"},{"v":"12:53PM"},{"v":"W"},{"v":"(910)504-8168"},{"v":2},{"v":0.1}]},
		{"cells":[{"v":"<form style='margin:0px'><input type='radio' name='radio'/>Yes<input type='radio' name='radio'/>No</form>"},{"v":54},{"v":"11/20/2006"},{"v":"05:49PM"},{"v":"W"},{"v":"(910)525-7522"},{"v":1},{"v":0.1}]},
		{"cells":[{"v":"<form style='margin:0px'><input type='radio' name='radio'/>Yes<input type='radio' name='radio'/>No</form>"},{"v":55},{"v":"11/20/2006"},{"v":"05:53PM"},{"v":"W"},{"v":"(910)504-8168"},{"v":1},{"v":0.1}]},
		{"cells":[{"v":"<form style='margin:0px'><input type='radio' name='radio'/>Yes<input type='radio' name='radio'/>No</form>"},{"v":56},{"v":"11/21/2006"},{"v":"12:20PM"},{"v":"P"},{"v":"(910)642-1714"},{"v":1},{"v":0.1}]},
		{"cells":[{"v":"<form style='margin:0px'><input type='radio' name='radio'/>Yes<input type='radio' name='radio'/>No</form>"},{"v":57},{"v":"11/21/2006"},{"v":"01:43PM"},{"v":"P"},{"v":"(910)717-4984"},{"v":2},{"v":0.1}]},
		{"cells":[{"v":"<form style='margin:0px'><input type='radio' name='radio'/>Yes<input type='radio' name='radio'/>No</form>"},{"v":58},{"v":"11/21/2006"},{"v":"05:46PM"},{"v":"P"},{"v":"(910)559-6688"},{"v":1},{"v":0.1}]},
		{"cells":[{"v":"<form style='margin:0px'><input type='radio' name='radio'/>Yes<input type='radio' name='radio'/>No</form>"},{"v":59},{"v":"11/22/2006"},{"v":"09:49AM"},{"v":"P"},{"v":"(000)000-0086"},{"v":2},{"v":0.1}]},
		{"cells":[{"v":"<form style='margin:0px'><input type='radio' name='radio'/>Yes<input type='radio' name='radio'/>No</form>"},{"v":60},{"v":"11/23/2006"},{"v":"12:58PM"},{"v":"P"},{"v":"(910)525-7522"},{"v":2},{"v":0.1}]},
		{"cells":[{"v":"<form style='margin:0px'><input type='radio' name='radio'/>Yes<input type='radio' name='radio'/>No</form>"},{"v":61},{"v":"11/23/2006"},{"v":"02:02PM"},{"v":"P"},{"v":"(866)522-7941"},{"v":1},{"v":0.1}]},
		{"cells":[{"v":"<form style='margin:0px'><input type='radio' name='radio'/>Yes<input type='radio' name='radio'/>No</form>"},{"v":62},{"v":"11/23/2006"},{"v":"02:22PM"},{"v":"P"},{"v":"(911)852-6217"},{"v":1},{"v":0.1}]},
		{"cells":[{"v":"<form style='margin:0px'><input type='radio' name='radio'/>Yes<input type='radio' name='radio'/>No</form>"},{"v":63},{"v":"11/23/2006"},{"v":"02:43PM"},{"v":"P"},{"v":"(910)776-3005"},{"v":2},{"v":0.1}]},
		{"cells":[{"v":"<form style='margin:0px'><input type='radio' name='radio'/>Yes<input type='radio' name='radio'/>No</form>"},{"v":64},{"v":"11/23/2006"},{"v":"02:57PM"},{"v":"P"},{"v":"(910)525-7522"},{"v":2},{"v":0.1}]},
		{"cells":[{"v":"<form style='margin:0px'><input type='radio' name='radio'/>Yes<input type='radio' name='radio'/>No</form>"},{"v":65},{"v":"11/23/2006"},{"v":"03:36PM"},{"v":"P"},{"v":"(866)522-7941"},{"v":3},{"v":0.1}]},
		{"cells":[{"v":"<form style='margin:0px'><input type='radio' name='radio'/>Yes<input type='radio' name='radio'/>No</form>"},{"v":66},{"v":"11/23/2006"},{"v":"03:45PM"},{"v":"P"},{"v":"(866)522-7941"},{"v":9},{"v":0.1}]},
		{"cells":[{"v":"<form style='margin:0px'><input type='radio' name='radio'/>Yes<input type='radio' name='radio'/>No</form>"},{"v":67},{"v":"11/25/2006"},{"v":"02:12PM"},{"v":"P"},{"v":"(000)000-0086"},{"v":1},{"v":0.1}]},
		{"cells":[{"v":"<form style='margin:0px'><input type='radio' name='radio'/>Yes<input type='radio' name='radio'/>No</form>"},{"v":68},{"v":"11/28/2006"},{"v":"12:01PM"},{"v":"P"},{"v":"(910)525-7522"},{"v":2},{"v":0.1}]},
		{"cells":[{"v":"<form style='margin:0px'><input type='radio' name='radio'/>Yes<input type='radio' name='radio'/>No</form>"},{"v":69},{"v":"11/28/2006"},{"v":"03:26PM"},{"v":"P"},{"v":"(866)522-7941"},{"v":5},{"v":0.1}]},
		{"cells":[{"v":"<form style='margin:0px'><input type='radio' name='radio'/>Yes<input type='radio' name='radio'/>No</form>"},{"v":70},{"v":"11/28/2006"},{"v":"05:05PM"},{"v":"P"},{"v":"(910)525-7522"},{"v":2},{"v":0.1}]},
		{"cells":[{"v":"<form style='margin:0px'><input type='radio' name='radio'/>Yes<input type='radio' name='radio'/>No</form>"},{"v":71},{"v":"11/28/2006"},{"v":"06:16PM"},{"v":"P"},{"v":"(910)504-8168"},{"v":2},{"v":0.1}]},
		{"cells":[{"v":"<form style='margin:0px'><input type='radio' name='radio'/>Yes<input type='radio' name='radio'/>No</form>"},{"v":72},{"v":"11/29/2006"},{"v":"10:30AM"},{"v":"P"},{"v":"(911)374-9561"},{"v":5},{"v":0.1}]},
		{"cells":[{"v":"<form style='margin:0px'><input type='radio' name='radio'/>Yes<input type='radio' name='radio'/>No</form>"},{"v":73},{"v":"11/29/2006"},{"v":"10:42AM"},{"v":"P"},{"v":"(910)525-7522"},{"v":2},{"v":0.1}]},
		{"cells":[{"v":"<form style='margin:0px'><input type='radio' name='radio'/>Yes<input type='radio' name='radio'/>No</form>"},{"v":74},{"v":"11/29/2006"},{"v":"04:32PM"},{"v":"P"},{"v":"(910)642-8345"},{"v":1},{"v":0.1}]},
		{"cells":[{"v":"<form style='margin:0px'><input type='radio' name='radio'/>Yes<input type='radio' name='radio'/>No</form>"},{"v":75},{"v":"11/30/2006"},{"v":"12:00PM"},{"v":"P"},{"v":"(930)426-3661"},{"v":1},{"v":0.1}]},
		{"cells":[{"v":"<form style='margin:0px'><input type='radio' name='radio'/>Yes<input type='radio' name='radio'/>No</form>"},{"v":76},{"v":"11/30/2006"},{"v":"12:07PM"},{"v":"P"},{"v":"(930)426-3661"},{"v":3},{"v":0.1}]},
		{"cells":[{"v":"<form style='margin:0px'><input type='radio' name='radio'/>Yes<input type='radio' name='radio'/>No</form>"},{"v":77},{"v":"11/30/2006"},{"v":"12:12PM"},{"v":"P"},{"v":"(930)587-0557"},{"v":2},{"v":0.1}]},
		{"cells":[{"v":"<form style='margin:0px'><input type='radio' name='radio'/>Yes<input type='radio' name='radio'/>No</form>"},{"v":78},{"v":"11/30/2006"},{"v":"02:10PM"},{"v":"P"},{"v":"(930)386-2557"},{"v":4},{"v":0.1}]},
		{"cells":[{"v":"<form style='margin:0px'><input type='radio' name='radio'/>Yes<input type='radio' name='radio'/>No</form>"},{"v":79},{"v":"11/30/2006"},{"v":"03:24PM"},{"v":"P"},{"v":"(910)525-7522"},{"v":2},{"v":0.1}]},
		{"cells":[{"v":"<form style='margin:0px'><input type='radio' name='radio'/>Yes<input type='radio' name='radio'/>No</form>"},{"v":80},{"v":"12/01/2006"},{"v":"09:52AM"},{"v":"P"},{"v":"(910)525-7522"},{"v":4},{"v":0.1}]},
		{"cells":[{"v":"<form style='margin:0px'><input type='radio' name='radio'/>Yes<input type='radio' name='radio'/>No</form>"},{"v":81},{"v":"12/01/2006"},{"v":"09:57AM"},{"v":"P"},{"v":"(866)522-7941"},{"v":4},{"v":0.1}]},
		{"cells":[{"v":"<form style='margin:0px'><input type='radio' name='radio'/>Yes<input type='radio' name='radio'/>No</form>"},{"v":82},{"v":"12/01/2006"},{"v":"11:59AM"},{"v":"P"},{"v":"(910)528-6402"},{"v":1},{"v":0.1}]},
		{"cells":[{"v":"<form style='margin:0px'><input type='radio' name='radio'/>Yes<input type='radio' name='radio'/>No</form>"},{"v":83},{"v":"12/01/2006"},{"v":"12:00PM"},{"v":"P"},{"v":"(910)525-7522"},{"v":1},{"v":0.1}]},
		{"cells":[{"v":"<form style='margin:0px'><input type='radio' name='radio'/>Yes<input type='radio' name='radio'/>No</form>"},{"v":84},{"v":"12/01/2006"},{"v":"12:03PM"},{"v":"P"},{"v":"(910)528-6402"},{"v":1},{"v":0.1}]},
		{"cells":[{"v":"<form style='margin:0px'><input type='radio' name='radio'/>Yes<input type='radio' name='radio'/>No</form>"},{"v":85},{"v":"12/01/2006"},{"v":"12:51PM"},{"v":"P"},{"v":"(910)525-7522"},{"v":1},{"v":0.1}]},
		{"cells":[{"v":"<form style='margin:0px'><input type='radio' name='radio'/>Yes<input type='radio' name='radio'/>No</form>"},{"v":86},{"v":"12/01/2006"},{"v":"03:11PM"},{"v":"P"},{"v":"(866)522-7941"},{"v":2},{"v":0.1}]},
		{"cells":[{"v":"<form style='margin:0px'><input type='radio' name='radio'/>Yes<input type='radio' name='radio'/>No</form>"},{"v":87},{"v":"12/01/2006"},{"v":"05:08PM"},{"v":"P"},{"v":"(866)522-7941"},{"v":2},{"v":0.1}]},
		{"cells":[{"v":"<form style='margin:0px'><input type='radio' name='radio'/>Yes<input type='radio' name='radio'/>No</form>"},{"v":88},{"v":"12/02/2006"},{"v":"09:49AM"},{"v":"P"},{"v":"(910)504-7204"},{"v":1},{"v":0.1}]},
		{"cells":[{"v":"<form style='margin:0px'><input type='radio' name='radio'/>Yes<input type='radio' name='radio'/>No</form>"},{"v":89},{"v":"12/02/2006"},{"v":"09:49AM"},{"v":"P"},{"v":"(910)504-7207"},{"v":1},{"v":0.1}]},
		{"cells":[{"v":"<form style='margin:0px'><input type='radio' name='radio'/>Yes<input type='radio' name='radio'/>No</form>"},{"v":90},{"v":"12/02/2006"},{"v":"10:15AM"},{"v":"P"},{"v":"(910)525-7522"},{"v":3},{"v":0.1}]},
		{"cells":[{"v":"<form style='margin:0px'><input type='radio' name='radio'/>Yes<input type='radio' name='radio'/>No</form>"},{"v":91},{"v":"12/02/2006"},{"v":"02:02PM"},{"v":"P"},{"v":"(910)504-7207"},{"v":1},{"v":0.1}]},
		{"cells":[{"v":"<form style='margin:0px'><input type='radio' name='radio'/>Yes<input type='radio' name='radio'/>No</form>"},{"v":92},{"v":"12/02/2006"},{"v":"02:19PM"},{"v":"P"},{"v":"(910)504-2167"},{"v":1},{"v":0.1}]},
		{"cells":[{"v":"<form style='margin:0px'><input type='radio' name='radio'/>Yes<input type='radio' name='radio'/>No</form>"},{"v":93},{"v":"12/02/2006"},{"v":"03:43PM"},{"v":"P"},{"v":"(934)846-5561"},{"v":4},{"v":0.1}]},
		{"cells":[{"v":"<form style='margin:0px'><input type='radio' name='radio'/>Yes<input type='radio' name='radio'/>No</form>"},{"v":94},{"v":"12/02/2006"},{"v":"04:46PM"},{"v":"P"},{"v":"(910)504-7207"},{"v":2},{"v":0.1}]},
		{"cells":[{"v":"<form style='margin:0px'><input type='radio' name='radio'/>Yes<input type='radio' name='radio'/>No</form>"},{"v":95},{"v":"12/02/2006"},{"v":"05:06PM"},{"v":"P"},{"v":"(000)000-0086"},{"v":1},{"v":0.1}]},
		{"cells":[{"v":"<form style='margin:0px'><input type='radio' name='radio'/>Yes<input type='radio' name='radio'/>No</form>"},{"v":96},{"v":"12/02/2006"},{"v":"05:07PM"},{"v":"P"},{"v":"(910)710-1325"},{"v":3},{"v":0.1}]},
		{"cells":[{"v":"<form style='margin:0px'><input type='radio' name='radio'/>Yes<input type='radio' name='radio'/>No</form>"},{"v":97},{"v":"12/02/2006"},{"v":"06:04PM"},{"v":"P"},{"v":"(910)710-1325"},{"v":2},{"v":0.1}]},
		{"cells":[{"v":"<form style='margin:0px'><input type='radio' name='radio'/>Yes<input type='radio' name='radio'/>No</form>"},{"v":98},{"v":"12/02/2006"},{"v":"06:06PM"},{"v":"P"},{"v":"(910)504-7207"},{"v":1},{"v":0.1}]},
		{"cells":[{"v":"<form style='margin:0px'><input type='radio' name='radio'/>Yes<input type='radio' name='radio'/>No</form>"},{"v":99},{"v":"12/02/2006"},{"v":"06:10PM"},{"v":"P"},{"v":"(910)504-7207"},{"v":1},{"v":0.1}]},
		{"cells":[{"v":"<form style='margin:0px'><input type='radio' name='radio'/>Yes<input type='radio' name='radio'/>No</form>"},{"v":100},{"v":"12/02/2006"},{"v":"06:16PM"},{"v":"P"},{"v":"(910)504-7207"},{"v":1},{"v":0.1}]},
		{"cells":[{"v":"<form style='margin:0px'><input type='radio' name='radio'/>Yes<input type='radio' name='radio'/>No</form>"},{"v":101},{"v":"12/02/2006"},{"v":"06:30PM"},{"v":"P"},{"v":"(910)504-7207"},{"v":2},{"v":0.1}]},
		{"cells":[{"v":"<form style='margin:0px'><input type='radio' name='radio'/>Yes<input type='radio' name='radio'/>No</form>"},{"v":102},{"v":"12/02/2006"},{"v":"06:32PM"},{"v":"P"},{"v":"(910)220-0883"},{"v":2},{"v":0.1}]},
		{"cells":[{"v":"<form style='margin:0px'><input type='radio' name='radio'/>Yes<input type='radio' name='radio'/>No</form>"},{"v":103},{"v":"12/02/2006"},{"v":"06:37PM"},{"v":"P"},{"v":"(910)220-0883"},{"v":1},{"v":0.1}]},
		{"cells":[{"v":"<form style='margin:0px'><input type='radio' name='radio'/>Yes<input type='radio' name='radio'/>No</form>"},{"v":104},{"v":"12/02/2006"},{"v":"06:40PM"},{"v":"P"},{"v":"(930)400-2929"},{"v":2},{"v":0.1}]},
		{"cells":[{"v":"<form style='margin:0px'><input type='radio' name='radio'/>Yes<input type='radio' name='radio'/>No</form>"},{"v":105},{"v":"12/02/2006"},{"v":"06:45PM"},{"v":"P"},{"v":"(910)504-7207"},{"v":2},{"v":0.1}]},
		{"cells":[{"v":"<form style='margin:0px'><input type='radio' name='radio'/>Yes<input type='radio' name='radio'/>No</form>"},{"v":106},{"v":"12/02/2006"},{"v":"07:10PM"},{"v":"P"},{"v":"(910)504-7207"},{"v":1},{"v":0.1}]},
		{"cells":[{"v":"<form style='margin:0px'><input type='radio' name='radio'/>Yes<input type='radio' name='radio'/>No</form>"},{"v":107},{"v":"12/02/2006"},{"v":"07:15PM"},{"v":"P"},{"v":"(910)504-7207"},{"v":1},{"v":0.1}]},
		{"cells":[{"v":"<form style='margin:0px'><input type='radio' name='radio'/>Yes<input type='radio' name='radio'/>No</form>"},{"v":108},{"v":"12/02/2006"},{"v":"07:18PM"},{"v":"P"},{"v":"(930)400-2929"},{"v":1},{"v":0.1}]},
		{"cells":[{"v":"<form style='margin:0px'><input type='radio' name='radio'/>Yes<input type='radio' name='radio'/>No</form>"},{"v":109},{"v":"12/02/2006"},{"v":"07:20PM"},{"v":"P"},{"v":"(910)220-0883"},{"v":2},{"v":0.1}]},
		{"cells":[{"v":"<form style='margin:0px'><input type='radio' name='radio'/>Yes<input type='radio' name='radio'/>No</form>"},{"v":110},{"v":"12/02/2006"},{"v":"07:24PM"},{"v":"P"},{"v":"(930)400-2929"},{"v":3},{"v":0.1}]},
		{"cells":[{"v":"<form style='margin:0px'><input type='radio' name='radio'/>Yes<input type='radio' name='radio'/>No</form>"},{"v":111},{"v":"12/02/2006"},{"v":"07:40PM"},{"v":"P"},{"v":"(930)400-2929"},{"v":1},{"v":0.1}]},
		{"cells":[{"v":"<form style='margin:0px'><input type='radio' name='radio'/>Yes<input type='radio' name='radio'/>No</form>"},{"v":112},{"v":"12/02/2006"},{"v":"07:47PM"},{"v":"P"},{"v":"(930)400-2929"},{"v":2},{"v":0.1}]},
		{"cells":[{"v":"<form style='margin:0px'><input type='radio' name='radio'/>Yes<input type='radio' name='radio'/>No</form>"},{"v":113},{"v":"12/03/2006"},{"v":"09:12AM"},{"v":"W"},{"v":"(910)710-1325"},{"v":3},{"v":0.1}]},
		{"cells":[{"v":"<form style='margin:0px'><input type='radio' name='radio'/>Yes<input type='radio' name='radio'/>No</form>"},{"v":114},{"v":"12/03/2006"},{"v":"09:29AM"},{"v":"W"},{"v":"(930)400-2929"},{"v":1},{"v":0.1}]},
		{"cells":[{"v":"<form style='margin:0px'><input type='radio' name='radio'/>Yes<input type='radio' name='radio'/>No</form>"},{"v":115},{"v":"12/03/2006"},{"v":"12:25PM"},{"v":"W"},{"v":"(910)504-2167"},{"v":1},{"v":0.1}]},
		{"cells":[{"v":"<form style='margin:0px'><input type='radio' name='radio'/>Yes<input type='radio' name='radio'/>No</form>"},{"v":116},{"v":"12/03/2006"},{"v":"01:06PM"},{"v":"W"},{"v":"(910)504-2167"},{"v":1},{"v":0.1}]},
		{"cells":[{"v":"<form style='margin:0px'><input type='radio' name='radio'/>Yes<input type='radio' name='radio'/>No</form>"},{"v":117},{"v":"12/03/2006"},{"v":"01:33PM"},{"v":"W"},{"v":"(000)000-0086"},{"v":1},{"v":0.1}]},
		{"cells":[{"v":"<form style='margin:0px'><input type='radio' name='radio'/>Yes<input type='radio' name='radio'/>No</form>"},{"v":118},{"v":"12/03/2006"},{"v":"04:06PM"},{"v":"W"},{"v":"(930)400-2929"},{"v":2},{"v":0.1}]},
		{"cells":[{"v":"<form style='margin:0px'><input type='radio' name='radio'/>Yes<input type='radio' name='radio'/>No</form>"},{"v":119},{"v":"12/03/2006"},{"v":"04:08PM"},{"v":"W"},{"v":"(910)710-1325"},{"v":1},{"v":0.1}]},
		{"cells":[{"v":"<form style='margin:0px'><input type='radio' name='radio'/>Yes<input type='radio' name='radio'/>No</form>"},{"v":120},{"v":"12/03/2006"},{"v":"04:11PM"},{"v":"W"},{"v":"(910)504-7207"},{"v":2},{"v":0.1}]},
		{"cells":[{"v":"<form style='margin:0px'><input type='radio' name='radio'/>Yes<input type='radio' name='radio'/>No</form>"},{"v":121},{"v":"12/03/2006"},{"v":"04:21PM"},{"v":"W"},{"v":"(000)000-0086"},{"v":1},{"v":0.1}]},
		{"cells":[{"v":"<form style='margin:0px'><input type='radio' name='radio'/>Yes<input type='radio' name='radio'/>No</form>"},{"v":122},{"v":"12/03/2006"},{"v":"04:22PM"},{"v":"W"},{"v":"(000)000-0086"},{"v":1},{"v":0.1}]},
		{"cells":[{"v":"<form style='margin:0px'><input type='radio' name='radio'/>Yes<input type='radio' name='radio'/>No</form>"},{"v":123},{"v":"12/03/2006"},{"v":"04:22PM"},{"v":"W"},{"v":"(930)386-2628"},{"v":1},{"v":0.1}]},
		{"cells":[{"v":"<form style='margin:0px'><input type='radio' name='radio'/>Yes<input type='radio' name='radio'/>No</form>"},{"v":124},{"v":"12/03/2006"},{"v":"04:23PM"},{"v":"W"},{"v":"(930)386-2628"},{"v":1},{"v":0.1}]},
		{"cells":[{"v":"<form style='margin:0px'><input type='radio' name='radio'/>Yes<input type='radio' name='radio'/>No</form>"},{"v":125},{"v":"12/03/2006"},{"v":"04:55PM"},{"v":"W"},{"v":"(910)504-7207"},{"v":2},{"v":0.1}]},
		{"cells":[{"v":"<form style='margin:0px'><input type='radio' name='radio'/>Yes<input type='radio' name='radio'/>No</form>"},{"v":126},{"v":"12/03/2006"},{"v":"05:06PM"},{"v":"W"},{"v":"(930)386-2628"},{"v":2},{"v":0.1}]},
		{"cells":[{"v":"<form style='margin:0px'><input type='radio' name='radio'/>Yes<input type='radio' name='radio'/>No</form>"},{"v":127},{"v":"12/03/2006"},{"v":"06:15PM"},{"v":"W"},{"v":"(930)386-2628"},{"v":2},{"v":0.1}]},
		{"cells":[{"v":"<form style='margin:0px'><input type='radio' name='radio'/>Yes<input type='radio' name='radio'/>No</form>"},{"v":128},{"v":"12/03/2006"},{"v":"06:21PM"},{"v":"W"},{"v":"(930)386-2628"},{"v":3},{"v":0.1}]},
		{"cells":[{"v":"<form style='margin:0px'><input type='radio' name='radio'/>Yes<input type='radio' name='radio'/>No</form>"},{"v":129},{"v":"12/04/2006"},{"v":"11:36AM"},{"v":"W"},{"v":"(910)504-7207"},{"v":1},{"v":0.1}]},
		{"cells":[{"v":"<form style='margin:0px'><input type='radio' name='radio'/>Yes<input type='radio' name='radio'/>No</form>"},{"v":130},{"v":"12/04/2006"},{"v":"01:20PM"},{"v":"W"},{"v":"(910)504-7207"},{"v":1},{"v":0.1}]},
		{"cells":[{"v":"<form style='margin:0px'><input type='radio' name='radio'/>Yes<input type='radio' name='radio'/>No</form>"},{"v":131},{"v":"12/05/2006"},{"v":"12:10PM"},{"v":"P"},{"v":"(866)522-7941"},{"v":4},{"v":0.1}]},
		{"cells":[{"v":"<form style='margin:0px'><input type='radio' name='radio'/>Yes<input type='radio' name='radio'/>No</form>"},{"v":132},{"v":"12/05/2006"},{"v":"12:47PM"},{"v":"P"},{"v":"(910)504-7207"},{"v":1},{"v":0.1}]},
		{"cells":[{"v":"<form style='margin:0px'><input type='radio' name='radio'/>Yes<input type='radio' name='radio'/>No</form>"},{"v":133},{"v":"12/05/2006"},{"v":"02:09PM"},{"v":"P"},{"v":"(910)525-7522"},{"v":5},{"v":0.1}]},
		{"cells":[{"v":"<form style='margin:0px'><input type='radio' name='radio'/>Yes<input type='radio' name='radio'/>No</form>"},{"v":134},{"v":"12/05/2006"},{"v":"02:11PM"},{"v":"P"},{"v":"(910)504-7207"},{"v":2},{"v":0.1}]},
		{"cells":[{"v":"<form style='margin:0px'><input type='radio' name='radio'/>Yes<input type='radio' name='radio'/>No</form>"},{"v":135},{"v":"12/06/2006"},{"v":"04:45PM"},{"v":"P"},{"v":"(910)504-8168"},{"v":6},{"v":0.1}]},
		{"cells":[{"v":"<form style='margin:0px'><input type='radio' name='radio'/>Yes<input type='radio' name='radio'/>No</form>"},{"v":136},{"v":"12/06/2006"},{"v":"06:48PM"},{"v":"P"},{"v":"(000)000-0086"},{"v":1},{"v":0.1}]},
		{"cells":[{"v":"<form style='margin:0px'><input type='radio' name='radio'/>Yes<input type='radio' name='radio'/>No</form>"},{"v":137},{"v":"12/06/2006"},{"v":"06:49PM"},{"v":"P"},{"v":"(910)504-8168"},{"v":2},{"v":0.1}]},
		{"cells":[{"v":"<form style='margin:0px'><input type='radio' name='radio'/>Yes<input type='radio' name='radio'/>No</form>"},{"v":138},{"v":"12/06/2006"},{"v":"06:50PM"},{"v":"P"},{"v":"(910)525-7522"},{"v":1},{"v":0.1}]},
		{"cells":[{"v":"<form style='margin:0px'><input type='radio' name='radio'/>Yes<input type='radio' name='radio'/>No</form>"},{"v":139},{"v":"12/07/2006"},{"v":"05:53PM"},{"v":"P"},{"v":"(910)527-4777"},{"v":2},{"v":0.1}]}
	]
}