----------------------------------------
Timestamp: 1/6/2015 6:32:11 PM
Message: "20150106183211" ,"ScriptEngine.StartEngine", "0", "mscorlib", "4977|^|1033|^|Engine could not be started.  Does the VBS_SCRIPTS table have the default data row?~*~10069|^|2052|^|无法启动引擎。VBS_SCRIPTS 表是否有默认数据行吗？Could not load file or assembly 'file:///D:\Riskmastercdr\Riskmaster\UI\riskmaster\userdata\RMXScripting\RMXCustomScripts.dll' or one of its dependencies. The system cannot find the file specified."
Category: Scripting
Priority: 0
EventId: 1001
Severity: Information
Title:
Machine: CSCINDAE750062
Application Domain: /LM/W3SVC/1/ROOT/RMService-2-130650228596499070
Process Id: 4124
Process Name: C:\Windows\SysWOW64\inetsrv\w3wp.exe
Win32 Thread Id: 3088
Thread Name: 
Extended Properties: 
----------------------------------------
----------------------------------------
Timestamp: 1/8/2015 6:04:53 PM
Message: "20150108180453" ,"ScriptEngine.StartEngine", "0", "Riskmaster.Scripting", "4977|^|1033|^|Engine could not be started.  Does the VBS_SCRIPTS table have the default data row?~*~10069|^|2052|^|无法启动引擎。VBS_SCRIPTS 表是否有默认数据行吗？ScriptEngine.ScriptCompilation.Exception
Src Line: 0
Src Column:0
Src Code:Unable to write to output file 'D:\Riskmastercdr\Riskmaster\UI\riskmaster\userdata\RMXScripting\RMXCustomScripts.dll': D:\Riskmastercdr\Riskmaster\UI\riskmaster\userdata\RMXScripting\RMXCustomScripts.pdb: The process cannot access the file because it is being used by another process.
Err Severity:False
Err Number:BC31019
Err Desc:vbc : (0,0) : error BC31019: Unable to write to output file 'D:\Riskmastercdr\Riskmaster\UI\riskmaster\userdata\RMXScripting\RMXCustomScripts.dll': D:\Riskmastercdr\Riskmaster\UI\riskmaster\userdata\RMXScripting\RMXCustomScripts.pdb: The process cannot access the file because it is being used by another process.

Src Line: 101
Src Column:0
Src Code:Unused local variable: 'rs'.
Err Severity:True
Err Number:BC42024
Err Desc:C:\Windows\TEMP\n2wycqbz.0.vb(101,0) : warning BC42024: Unused local variable: 'rs'.

Src Line: 103
Src Column:0
Src Code:Unused local variable: 'dbConn'.
Err Severity:True
Err Number:BC42024
Err Desc:C:\Windows\TEMP\n2wycqbz.0.vb(103,0) : warning BC42024: Unused local variable: 'dbConn'.

Src Line: 111
Src Column:0
Src Code:Unused local variable: 'str'.
Err Severity:True
Err Number:BC42024
Err Desc:C:\Windows\TEMP\n2wycqbz.0.vb(111,0) : warning BC42024: Unused local variable: 'str'.

Src Line: 113
Src Column:0
Src Code:Unused local variable: 'arrUserID'.
Err Severity:True
Err Number:BC42024
Err Desc:C:\Windows\TEMP\n2wycqbz.0.vb(113,0) : warning BC42024: Unused local variable: 'arrUserID'.

Src Line: 240
Src Column:0
Src Code:Variable 'objNewReserveHistory' is used before it has been assigned a value. A null reference exception could result at runtime.
Err Severity:True
Err Number:BC42104
Err Desc:C:\Windows\TEMP\n2wycqbz.0.vb(240,0) : warning BC42104: Variable 'objNewReserveHistory' is used before it has been assigned a value. A null reference exception could result at runtime.
"
Category: Scripting
Priority: 0
EventId: 1001
Severity: Information
Title:
Machine: CSCINDAE750062
Application Domain: /LM/W3SVC/1/ROOT/RMService-2-130651940044232050
Process Id: 1956
Process Name: C:\Windows\SysWOW64\inetsrv\w3wp.exe
Win32 Thread Id: 9640
Thread Name: 
Extended Properties: 
----------------------------------------
----------------------------------------
Timestamp: 1/9/2015 2:52:28 PM
Message: "20150109145228" ,"ScriptEngine.StartEngine", "0", "Riskmaster.Scripting", "4977|^|1033|^|Engine could not be started.  Does the VBS_SCRIPTS table have the default data row?~*~10069|^|2052|^|无法启动引擎。VBS_SCRIPTS 表是否有默认数据行吗？ScriptEngine.ScriptCompilation.Exception
Src Line: 0
Src Column:0
Src Code:Unable to write to output file 'D:\Riskmastercdr\Riskmaster\UI\riskmaster\userdata\RMXScripting\RMXCustomScripts.dll': D:\Riskmastercdr\Riskmaster\UI\riskmaster\userdata\RMXScripting\RMXCustomScripts.pdb: The process cannot access the file because it is being used by another process.
Err Severity:False
Err Number:BC31019
Err Desc:vbc : (0,0) : error BC31019: Unable to write to output file 'D:\Riskmastercdr\Riskmaster\UI\riskmaster\userdata\RMXScripting\RMXCustomScripts.dll': D:\Riskmastercdr\Riskmaster\UI\riskmaster\userdata\RMXScripting\RMXCustomScripts.pdb: The process cannot access the file because it is being used by another process.

Src Line: 101
Src Column:0
Src Code:Unused local variable: 'rs'.
Err Severity:True
Err Number:BC42024
Err Desc:C:\Windows\TEMP\velzbh2p.0.vb(101,0) : warning BC42024: Unused local variable: 'rs'.

Src Line: 103
Src Column:0
Src Code:Unused local variable: 'dbConn'.
Err Severity:True
Err Number:BC42024
Err Desc:C:\Windows\TEMP\velzbh2p.0.vb(103,0) : warning BC42024: Unused local variable: 'dbConn'.

Src Line: 111
Src Column:0
Src Code:Unused local variable: 'str'.
Err Severity:True
Err Number:BC42024
Err Desc:C:\Windows\TEMP\velzbh2p.0.vb(111,0) : warning BC42024: Unused local variable: 'str'.

Src Line: 113
Src Column:0
Src Code:Unused local variable: 'arrUserID'.
Err Severity:True
Err Number:BC42024
Err Desc:C:\Windows\TEMP\velzbh2p.0.vb(113,0) : warning BC42024: Unused local variable: 'arrUserID'.

Src Line: 240
Src Column:0
Src Code:Variable 'objNewReserveHistory' is used before it has been assigned a value. A null reference exception could result at runtime.
Err Severity:True
Err Number:BC42104
Err Desc:C:\Windows\TEMP\velzbh2p.0.vb(240,0) : warning BC42104: Variable 'objNewReserveHistory' is used before it has been assigned a value. A null reference exception could result at runtime.
"
Category: Scripting
Priority: 0
EventId: 1001
Severity: Information
Title:
Machine: CSCINDAE750062
Application Domain: /LM/W3SVC/1/ROOT/RMService-2-130652688733304363
Process Id: 7760
Process Name: C:\Windows\SysWOW64\inetsrv\w3wp.exe
Win32 Thread Id: 3208
Thread Name: 
Extended Properties: 
----------------------------------------
