{
  "APISERVER" : "http://localhost/policyAPI",
  "RMASERVER" : "http://localhost/RMService",
  "AUTHENTICATIONKEY":"a1WuztmA0oJKzv3N2JNvbWUBalcZ6/pIXWSNY+Ie7evkHea089/pUH3xO6P6PXFH1pq3tituSAHYT6jlLCn8ELh59OxNmT8wwLeABoUq3dx9CVPEK3YcXUWGWZFM0cWtdUo9UuhpxrJzIQkOy2nJeKzjCqBFZKcFIjgR59rSTXs="
}
