<?xml version="1.0"?>
<doc>
    <assembly>
        <name>Riskmaster.Application.EmailDocuments</name>
    </assembly>
    <members>
        <member name="T:Riskmaster.Application.EmailDocuments.EmailDocuments">
            <summary>
            EmailDocuments Class for Sending Email with or without attachments
            </summary>
        </member>
        <member name="F:Riskmaster.Application.EmailDocuments.EmailDocuments.m_sUserName">
            <summary>
            Private variable to store user name
            </summary>
        </member>
        <member name="F:Riskmaster.Application.EmailDocuments.EmailDocuments.m_sPassword">
            <summary>
            Private variable to store password
            </summary>
        </member>
        <member name="F:Riskmaster.Application.EmailDocuments.EmailDocuments.m_sDsnName">
            <summary>
            Private variable to store DSN Name
            </summary>
        </member>
        <member name="F:Riskmaster.Application.EmailDocuments.EmailDocuments.m_sConnectionString">
            <summary>
            Private variable to store connection string
            </summary>
        </member>
        <member name="F:Riskmaster.Application.EmailDocuments.EmailDocuments.m_objDataModelFactory">
            <summary>
            Private variable to store the instance of Datamodel factory object
            </summary>
        </member>
        <member name="F:Riskmaster.Application.EmailDocuments.EmailDocuments.m_iUserId">
            <summary>
            Private variable for UserId 
            </summary>
        </member>
        <member name="F:Riskmaster.Application.EmailDocuments.EmailDocuments.m_iUserGroupId">
            <summary>
            Private variable for UserGroupId
            </summary>
        </member>
        <member name="M:Riskmaster.Application.EmailDocuments.EmailDocuments.#ctor(System.String,System.String,System.String,System.Int32,System.Int32,System.Int32)">
            <summary>
            Constructor, initializes the variables to the default value
            </summary>
            <param name="p_sUserName">UserName</param>
            <param name="p_sPassword">Password</param>
            <param name="p_sDsnName">DsnName</param>
            <param name="p_iUserId">User Id</param>
            <param name="p_iUserGroupId">User Group Id</param>		
        </member>
        <member name="M:Riskmaster.Application.EmailDocuments.EmailDocuments.Finalize">
            <summary>
            Destructor
            </summary>
        </member>
        <member name="M:Riskmaster.Application.EmailDocuments.EmailDocuments.Initialize">
            <summary>
            Initialize objects
            </summary>
        </member>
        <!-- Badly formed XML comment ignored for member "M:Riskmaster.Application.EmailDocuments.EmailDocuments.SplitForStringPattern(System.String,System.String,System.Collections.ArrayList@)" -->
        <member name="M:Riskmaster.Application.EmailDocuments.EmailDocuments.GetEmailId(System.String,System.String)">
            <summary>
            Gets the e-mail id
            </summary>
            <param name="p_sConnectionString">Security Connection String</param>
            <param name="p_sLogInName">Log-in name of the user</param>
            <returns>E-mail id of the user</returns>
        </member>
        <member name="M:Riskmaster.Application.EmailDocuments.EmailDocuments.GetUsers(System.String,System.String@)">
            <summary>
            Loads the users details that are allowed to login to a current datasource.
            </summary>
        </member>
        <member name="M:Riskmaster.Application.EmailDocuments.EmailDocuments.SendEmail(System.String,System.String,System.String,System.String,System.String,System.String)">
            <returns>True if successful else false.</returns>
        </member>
        <member name="M:Riskmaster.Application.EmailDocuments.EmailDocuments.SendEmail(System.String,System.String,System.String,System.String,System.String,System.String,System.String)">
            <returns>True if successful else false.</returns>
        </member>
        <member name="M:Riskmaster.Application.EmailDocuments.EmailDocuments.SendEmail(System.String,System.String,System.String,System.String,System.String)">
            <summary>
            Mridul 06/25/09 MITS 16745- Chubb Mail merge (acknowledgement letter)
            From email address can be passed from calling application
            </summary>
            <param name="p_sEmailIdsTo"></param>
            <param name="p_sSubject"></param>
            <param name="p_sMessage"></param>
            <param name="p_sAttachFileName"></param>
            <param name="p_sEmailIDFrom"></param>
            <returns></returns>
        </member>
        <member name="M:Riskmaster.Application.EmailDocuments.EmailDocuments.Dispose">
            <summary>
            Un Initialize the data model factory object. 
            </summary>
        </member>
    </members>
</doc>
