<?xml version="1.0"?>
<doc>
    <assembly>
        <name>Riskmaster.Application.IntegralSystemInterface</name>
    </assembly>
    <members>
        <member name="T:Riskmaster.Application.IntegralSystemInterface.Global">
            <summary>
              A strongly-typed resource class, for looking up localized strings, etc.
            </summary>
        </member>
        <member name="P:Riskmaster.Application.IntegralSystemInterface.Global.ResourceManager">
            <summary>
              Returns the cached ResourceManager instance used by this class.
            </summary>
        </member>
        <member name="P:Riskmaster.Application.IntegralSystemInterface.Global.Culture">
            <summary>
              Overrides the current thread's CurrentUICulture property for all
              resource lookups using this strongly typed resource class.
            </summary>
        </member>
        <member name="P:Riskmaster.Application.IntegralSystemInterface.Global.GetDownLoadXMLData_NoRecordsFound">
            <summary>
              Looks up a localized string similar to No Record Found..
            </summary>
        </member>
        <member name="P:Riskmaster.Application.IntegralSystemInterface.Global.GetEndorsementDataInfo_NoRecordsFound">
            <summary>
              Looks up a localized string similar to No Records Found..
            </summary>
        </member>
        <member name="P:Riskmaster.Application.IntegralSystemInterface.Global.PolicySystemInterface_GetPolicyDetails_ErrorFetchingDetails">
            <summary>
              Looks up a localized string similar to Error while fetching policy and policy system details..
            </summary>
        </member>
        <member name="P:Riskmaster.Application.IntegralSystemInterface.Global.PolicySystemInterface_GetPolicySystemInfoById_NoRecordsFound">
            <summary>
              Looks up a localized string similar to An error has occurred while retrieving Policy Systems Data..
            </summary>
        </member>
        <member name="P:Riskmaster.Application.IntegralSystemInterface.Global.PolicySystemInterface_GetPolicySystemList_NoBaseLobLine">
            <summary>
              Looks up a localized string similar to Policy System Base LOB LineMapping Error: Missing Base LOB Line..
            </summary>
        </member>
        <member name="P:Riskmaster.Application.IntegralSystemInterface.Global.PolicySystemInterface_GetPolicySystemList_NoPolicySystemsDefined">
            <summary>
              Looks up a localized string similar to No policy systems are defined..
            </summary>
        </member>
        <member name="P:Riskmaster.Application.IntegralSystemInterface.Global.PolicySystemInterface_GetPolicySystemList_PolicySysFetchingError">
            <summary>
              Looks up a localized string similar to An error has occurred while fetching the Policy Systems data..
            </summary>
        </member>
        <member name="P:Riskmaster.Application.IntegralSystemInterface.Global.PolicySystemInterface_GetPSMappedCodesFromRMXCode_FetchingMappedCodesError">
            <summary>
              Looks up a localized string similar to Policy System Code Mapping Error: Missing mapped code &quot;{0}&quot; for &quot;{1}&quot;.
            </summary>
        </member>
        <member name="P:Riskmaster.Application.IntegralSystemInterface.Global.PolicySystemInterface_GetRMXCodeIdFromPSMappedCode_FetchingMappedCodesError">
            <summary>
              Looks up a localized string similar to Policy System Code Mapping Error: Missing mapped code &quot;{0}&quot; for &quot;{1}&quot;.
            </summary>
        </member>
        <member name="P:Riskmaster.Application.IntegralSystemInterface.Global.PolicySystemInterface_OrphanPolicyCleanUp_Error">
            <summary>
              Looks up a localized string similar to An error has occured while deleting orphan policy data..
            </summary>
        </member>
        <member name="P:Riskmaster.Application.IntegralSystemInterface.Global.SaveEndorsementData_ExceptioninSaveXMLData">
            <summary>
              Looks up a localized string similar to An Error has occured while saving the endorsement data..
            </summary>
        </member>
        <member name="P:Riskmaster.Application.IntegralSystemInterface.Global.SavePolicyDownloadXMLData_ExceptioninSaveXMLData">
            <summary>
              Looks up a localized string similar to An error has occured while saving policy DownLoad XML data..
            </summary>
        </member>
        <member name="P:Riskmaster.Application.IntegralSystemInterface.Global.SetUpPolicySystem_CreateDBViewsForPointClaimBalancing_Error">
            <summary>
              Looks up a localized string similar to An error occured while creating views for Claim Balancing..
            </summary>
        </member>
        <member name="P:Riskmaster.Application.IntegralSystemInterface.Global.SetUpPolicySystem_GetById_Error">
            <summary>
              Looks up a localized string similar to An error has occurred while retrieving Policy System Data..
            </summary>
        </member>
        <member name="P:Riskmaster.Application.IntegralSystemInterface.Global.SetUpPolicySystem_InsertPSMapTablesIntoGlossary_Error">
            <summary>
              Looks up a localized string similar to An error has occured while inserting map tables for policy system..
            </summary>
        </member>
        <member name="P:Riskmaster.Application.IntegralSystemInterface.Global.SetUpPolicySystem_LoadData_Error">
            <summary>
              Looks up a localized string similar to An error has occurred while retrieving Policy Systems Data..
            </summary>
        </member>
        <member name="P:Riskmaster.Application.IntegralSystemInterface.Global.SetUpPolicySystem_LoadData_NoRecordsFound">
            <summary>
              Looks up a localized string similar to No Records Found..
            </summary>
        </member>
        <member name="P:Riskmaster.Application.IntegralSystemInterface.Global.SetUpPolicySystem_RefreshPolicySystems_Error">
            <summary>
              Looks up a localized string similar to An error has occured while refreshing policy systems..
            </summary>
        </member>
        <member name="P:Riskmaster.Application.IntegralSystemInterface.Global.SetUpPolicySystem_Save_Error">
            <summary>
              Looks up a localized string similar to An error has occured while saving policy system data..
            </summary>
        </member>
        <member name="P:Riskmaster.Application.IntegralSystemInterface.Global.SetUpPolicySystem_Save_NotAUniqueName">
            <summary>
              Looks up a localized string similar to Duplicate mapping table prefix name. Please enter a unique name..
            </summary>
        </member>
    </members>
</doc>
