<?xml version="1.0"?>
<doc>
    <assembly>
        <name>Riskmaster.Application.ReportInterfaces</name>
    </assembly>
    <members>
        <member name="T:Riskmaster.Application.ReportInterfaces.IReportEngine">
            <summary>
             This interface is implemented by reporting engines.
             SMWorker executes reporting jobs using engine obtained 
             from ReportEngineFactory, that returns a reference 
             of this interface. 
            </summary>
        </member>
        <member name="M:Riskmaster.Application.ReportInterfaces.IReportEngine.RunReport">
            Name			: RunReport
            Author			: Aditya Babbar
            Date Created	: 22-Dec-2004
            ************************************************************
            Amendment History
            ************************************************************
            Date Amended	*   Amendment   *    Author
            				*				*
            				*				*	
            ************************************************************		
            <summary>
            Generates report output.
            </summary>
        </member>
        <member name="M:Riskmaster.Application.ReportInterfaces.IReportEngine.Init">
            Name			: Init
            Author			: Aditya Babbar
            Date Created	: 22-Dec-2004
            ************************************************************
            Amendment History
            ************************************************************
            Date Amended	*   Amendment   *    Author
            				*				*
            				*				*	
            ************************************************************		
            <summary>
            Initializes report engine. 
            </summary>
        </member>
        <member name="P:Riskmaster.Application.ReportInterfaces.IReportEngine.CriteriaXmlDom">
            <summary>
             Report Criteria XML DOM
            </summary>
        </member>
        <member name="P:Riskmaster.Application.ReportInterfaces.IReportEngine.CriteriaHtml">
            <summary>
             Criteria HTML
            </summary>
        </member>
        <member name="P:Riskmaster.Application.ReportInterfaces.IReportEngine.HtmlCriteriaSupported">
            <summary>
            HTML Criteria Supported 
            </summary>
        </member>
        <member name="P:Riskmaster.Application.ReportInterfaces.IReportEngine.XmlCriteriaSupported">
            <summary>
             XML Criteria Supported
            </summary>
        </member>
        <member name="P:Riskmaster.Application.ReportInterfaces.IReportEngine.OutputsSupported">
            <summary>
             Outputs Supported
            </summary>
        </member>
        <member name="P:Riskmaster.Application.ReportInterfaces.IReportEngine.ReportOutput">
            <summary>
             Output Report Files.
            </summary>
        </member>
        <member name="P:Riskmaster.Application.ReportInterfaces.IReportEngine.Notify">
            <summary>
            Executing Worker Object.
            </summary>
        </member>
        <member name="P:Riskmaster.Application.ReportInterfaces.IReportEngine.ConnectionString">
            <summary>
            Database Connection String. 
            </summary>
        </member>
        <member name="P:Riskmaster.Application.ReportInterfaces.IReportEngine.OutputDirectory">
            <summary>
            Output Directory. 
            </summary>
        </member>
        <member name="P:Riskmaster.Application.ReportInterfaces.IReportEngine.OutputFormat">
            <summary>
            Output Format. 
            </summary>
        </member>
        <member name="T:Riskmaster.Application.ReportInterfaces.eReportFormat">
            <summary>
            Report Type
            </summary>
        </member>
        <member name="T:Riskmaster.Application.ReportInterfaces.IWorkerNotifications">
            ************************************************************** 
            * $File		: IWorkerNotifications.cs 
            * $Revision	: 1.0
            * $Date		: 22-Dec-2004 
            * $Author	: Aditya Babbar
            * $Comment	: 
            * $Source	: 
            **************************************************************
             <summary>
             This interface is implemented by SMWorker object.
             Reporting Engines such as those for Executive Summary 
             and OSHA reports, update the progress of a job to the
             worker process and check for cancellation of a job 
             using this interface. 
             </summary>
        </member>
        <member name="M:Riskmaster.Application.ReportInterfaces.IWorkerNotifications.UpdateProgress(System.String,System.Int32,System.Int32,System.Int32)">
            Name			: UpdateProgress
            Author			: Aditya Babbar
            Date Created	: 22-Dec-2004
            ************************************************************
            Amendment History
            ************************************************************
            Date Amended	*   Amendment   *    Author
            				*				*
            				*				*	
            ************************************************************		
            <summary>
            Reporting engines update the progress of their job using this method 
            that is called at various stages of job execution.
            </summary>
            <param name="p_sReportStage">
            	Report Stage.
            </param>
            <param name="p_iTimeElapsed">
            	Time Elapsed.
            </param>
            <param name="p_iTimeLeft">
            	Time Left.
            </param>
            <param name="p_iPercentComplete">
            	Percent Complete.
            </param>		
        </member>
        <member name="M:Riskmaster.Application.ReportInterfaces.IWorkerNotifications.CheckAbort">
            Name			: CheckAbort
            Author			: Aditya Babbar
            Date Created	: 22-Dec-2004
            ************************************************************
            Amendment History
            ************************************************************
            Date Amended	*   Amendment   *    Author
            				*				*
            				*				*	
            ************************************************************		
            <summary>
            Reporting Engines check whether they need to abort the current job
            by calling this method at various stages while generating a report. 
            This gives them the opportunity to cleanup and exit cleanly.
            </summary>
            <returns>
            	1 - Engine should abort job
            	0 - Engine should continue job
            </returns>
        </member>
    </members>
</doc>
