<?xml version="1.0"?>
<doc>
    <assembly>
        <name>Riskmaster.BusinessAdaptor.EmailDocumentsAdaptor</name>
    </assembly>
    <members>
        <member name="T:Riskmaster.BusinessAdaptor.EmailDocumentsAdaptor">
            <summary>	
            This class is used to call the application layer component for Email Documents.
            </summary>
        </member>
        <member name="M:Riskmaster.BusinessAdaptor.EmailDocumentsAdaptor.#ctor">
            <summary>
            Class Constructor.
            </summary>
        </member>
        <!-- Badly formed XML comment ignored for member "M:Riskmaster.BusinessAdaptor.EmailDocumentsAdaptor.EmailDocuments(System.Xml.XmlDocument,System.Xml.XmlDocument@,Riskmaster.BusinessAdaptor.Common.BusinessAdaptorErrors@)" -->
        <member name="M:Riskmaster.BusinessAdaptor.EmailDocumentsAdaptor.CheckOutlookSetting(Riskmaster.Models.DocumentType,System.Boolean@,Riskmaster.BusinessAdaptor.Common.BusinessAdaptorErrors@)">
            <summary>
            
            </summary>
            <param name="p_objXmlDocIn"></param>
            <param name="p_objXmlDocOut"></param>
            <param name="p_objErrOut"></param>
            <returns></returns>
        </member>
        <member name="M:Riskmaster.BusinessAdaptor.EmailDocumentsAdaptor.GetExecutiveSummaryFileDetails(Riskmaster.Models.DocumentType,Riskmaster.Models.DocumentType@,Riskmaster.BusinessAdaptor.Common.BusinessAdaptorErrors@)">
            <summary>
            This function generates executive summary file content for a 
            particular record
            </summary>
            <param name="objDocument">DocumentType object with record and form name</param>
            <param name="outDocument">DocumentType object with executive summary contents</param>
            <param name="p_objErrors">errors</param>
            <returns>true - success
            	false - failure</returns>
        </member>
        <!-- Badly formed XML comment ignored for member "M:Riskmaster.BusinessAdaptor.EmailDocumentsAdaptor.GetUsers(System.Xml.XmlDocument,System.Xml.XmlDocument@,Riskmaster.BusinessAdaptor.Common.BusinessAdaptorErrors@)" -->
    </members>
</doc>
