<?xml version="1.0"?>
<doc>
    <assembly>
        <name>Riskmaster.Application.Search</name>
    </assembly>
    <members>
        <member name="T:Riskmaster.Application.Search.ConstGlobals">
             <summary>
            Author:   Sumeet Rathod
            Dated :   24th August 2004
            Purpose:   This class contains the constants, which are being used in the supporting search classes.
             </summary>
        </member>
        <member name="F:Riskmaster.Application.Search.ConstGlobals.ORGHEI_SEARCH_PARAM">
             <summary>
            Represents organizational hierarchy
             </summary>
        </member>
        <member name="F:Riskmaster.Application.Search.ConstGlobals.CLAIM_SEARCH">
            <summary>
            Claim search
            </summary>
        </member>
        <member name="F:Riskmaster.Application.Search.ConstGlobals.EVENT_SEARCH">
            <summary>
            Event search
            </summary>
        </member>
        <member name="F:Riskmaster.Application.Search.ConstGlobals.EMPLOYEE_SEARCH">
            <summary>
            Employee search
            </summary>
        </member>
        <member name="F:Riskmaster.Application.Search.ConstGlobals.ENTITY_SEARCH">
            <summary>
            Entity search
            </summary>
        </member>
        <member name="F:Riskmaster.Application.Search.ConstGlobals.VEHICLE_SEARCH">
            <summary>
            Vehicle search
            </summary>
        </member>
        <member name="F:Riskmaster.Application.Search.ConstGlobals.POLICY_SEARCH">
            <summary>
            Policy search
            </summary>
        </member>
        <member name="F:Riskmaster.Application.Search.ConstGlobals.PAYMENT_SEARCH">
            <summary>
            Payment search
            </summary>
        </member>
        <member name="F:Riskmaster.Application.Search.ConstGlobals.PATIENT_SEARCH">
            <summary>
            Patient search
            </summary>
        </member>
        <member name="F:Riskmaster.Application.Search.ConstGlobals.PHYSICIAN_SEARCH">
            <summary>
            Physician search
            </summary>
        </member>
        <member name="F:Riskmaster.Application.Search.ConstGlobals.MED_STAFF_SEARCH">
            <summary>
            Medical Staff search
            </summary>
        </member>
        <member name="F:Riskmaster.Application.Search.ConstGlobals.DISP_PLAN_SEARCH">
            <summary>
            Disability Plan search
            </summary>
        </member>
        <member name="F:Riskmaster.Application.Search.ConstGlobals.LV_PLAN_SEARCH">
            <summary>
            Leave Plan search
            </summary>
        </member>
        <member name="F:Riskmaster.Application.Search.ConstGlobals.AT_SEARCH">
            <summary>
            Administrative Tracking search
            </summary>
        </member>
        <member name="F:Riskmaster.Application.Search.ConstGlobals.ENHANCED_POLICY_SEARCH">
            <summary>
            Enhanced Policy Search
            </summary>
        </member>
        <member name="F:Riskmaster.Application.Search.ConstGlobals.CATASTROPHE_SEARCH">
            <summary>
            Catastrophe Search
            </summary>
        </member>
        <member name="F:Riskmaster.Application.Search.ConstGlobals.DRIVER_SEARCH">
            <summary>
            Driver Search
            </summary>
        </member>
        <member name="M:Riskmaster.Application.Search.ConstGlobals.#ctor">
            <summary>
            This is default constructor
            </summary>
        </member>
        <member name="T:Riskmaster.Application.Search.ResultList">
             <summary>
            Author  :   Sumeet Rathod
            Dated   :   24th August 2004
            Purpose :   This class performs the search operation and calls the module specific search functions.
            			   This class also calls the functions related to XML generation corresponding to the search data.
             </summary>
        </member>
        <member name="F:Riskmaster.Application.Search.ResultList.LEFT_ALIGN">
            <summary>
            Left alignment
            </summary>
        </member>
        <member name="F:Riskmaster.Application.Search.ResultList.RIGHT_ALIGN">
            <summary>
            Right alignment
            </summary>
        </member>
        <member name="F:Riskmaster.Application.Search.ResultList.CENTER_ALIGN">
            <summary>
            Center alignment
            </summary>
        </member>
        <member name="F:Riskmaster.Application.Search.ResultList.NO_OF_ROWS">
            <summary>
            Number of rows in a report page
            </summary>
        </member>
        <member name="F:Riskmaster.Application.Search.ResultList.m_sConnectionString">
            <summary>
            Represents the connection string for the underlying Riskmaster Database.
            </summary>
        </member>
        <member name="F:Riskmaster.Application.Search.ResultList.m_sDBType">
            <summary>
            Represents the connection string for the underlying Riskmaster Database.
            </summary>
        </member>
        <member name="F:Riskmaster.Application.Search.ResultList.m_sConnectionStringSession">
            <summary>
            Represents the connection string for the underlying Riskmaster Database.
            </summary>
        </member>
        <member name="F:Riskmaster.Application.Search.ResultList.m_lPageCount">
            <summary>
            Page Count
            </summary>
        </member>
        <member name="F:Riskmaster.Application.Search.ResultList.m_iClientId">
            <summary>
            Client ID for multi-tenant environment, cloud
            </summary>
        </member>
        <member name="F:Riskmaster.Application.Search.ResultList.m_arrStrFinalData">
            <summary>
            Contains the final search data received from the Database.
            </summary>
        </member>
        <member name="F:Riskmaster.Application.Search.ResultList.m_objPrintDoc">
            <summary>
            C1PrintDocumnet object instance.
            </summary>
        </member>
        <member name="F:Riskmaster.Application.Search.ResultList.m_dblCurrentX">
            <summary>
            CurrentX
            </summary>
        </member>
        <member name="F:Riskmaster.Application.Search.ResultList.m_dblCurrentY">
            <summary>
            CurrentY
            </summary>
        </member>
        <member name="F:Riskmaster.Application.Search.ResultList.m_objFont">
            <summary>
            Font object.
            </summary>
        </member>
        <member name="F:Riskmaster.Application.Search.ResultList.m_objText">
            <summary>
            Text object.
            </summary>
        </member>
        <member name="F:Riskmaster.Application.Search.ResultList.m_dblPageWidth">
            <summary>
            PageWidth
            </summary>
        </member>
        <member name="F:Riskmaster.Application.Search.ResultList.m_dblPageHeight">
            <summary>
            PageHeight
            </summary>
        </member>
        <member name="F:Riskmaster.Application.Search.ResultList.m_dblClientWidth">
            <summary>
            ClientWidth
            </summary>
        </member>
        <member name="F:Riskmaster.Application.Search.ResultList.m_bFromMobileAdj">
            <summary>
            Call from Mobile Adjuster
            </summary>
        </member>
        <member name="F:Riskmaster.Application.Search.ResultList.m_bFromMobilityAdj">
            <summary>
            Call from Mobility Adjuster
            </summary>
        </member>
        <member name="F:Riskmaster.Application.Search.ResultList.m_bFromMobileAdjClaimList">
            <summary>
            Call from Mobile Adjuster for Claim List part    
            </summary>
        </member>
        <member name="M:Riskmaster.Application.Search.ResultList.#ctor">
            <summary>
            This is default constructor
            </summary>
        </member>
        <member name="M:Riskmaster.Application.Search.ResultList.#ctor(System.String,Riskmaster.Security.UserLogin,System.Int32)">
            <summary>
            Overloaded constructor, which sets the connection string.
            </summary>
            <param name="p_sConnectionstring">Database connection string</param>
        </member>
        <member name="M:Riskmaster.Application.Search.ResultList.SearchRun(System.Int32,System.Int32,System.Int64,System.Int32,System.Int32,System.Int64,System.Int64,System.Xml.XmlDocument,System.String,System.String,System.String)">
            <summary>
            This function sends the generated XML for the given search criteria to the Adapter layer.
            </summary>
            <param name="p_iUserID">User Id</param>
            <param name="p_iGroupID">Group id</param>
            <param name="p_lLookupOnlyViewID">View id corresponding to the search module</param>
            <param name="p_iPageNo"> Page Number to be displayed</param>
            <param name="p_lPageSize">Total page size to be displayed on to the web page</param>
            <param name="p_lMaxResults">Maximum results to be displayed</param>
            <param name="p_sSysEx">Parameter corresponding to the soundex feature</param>
            <param name="p_sFieldValue">Search input data</param>
            <param name="p_sDBName">Data base name</param>
            <param name="p_sUserName">User name</param>
            <param name="p_sPwd">User password</param>
            <returns>String containing the search XML.</returns>
        </member>
        <member name="M:Riskmaster.Application.Search.ResultList.PrintSearch(System.Int32,System.Int32,System.Int64,System.Int32,System.Int32,System.Int64,System.Int64,System.Xml.XmlDocument,System.String,System.String,System.String,System.Xml.XmlDocument@)">
            <summary>
            This function sends the generated XML for the given search criteria to the Adapter layer.
            </summary>
            <param name="p_iUserID">User Id</param>
            <param name="p_iGroupID">Group id</param>
            <param name="p_lLookupOnlyViewID">View id corresponding to the search module</param>
            <param name="p_iPageNo"> Page Number to be displayed</param>
            <param name="p_lPageSize">Total page size to be displayed on to the web page</param>
            <param name="p_lMaxResults">Maximum results to be displayed</param>
            <param name="p_sSysEx">Parameter corresponding to the soundex feature</param>
            <param name="p_sFieldValue">Search input data</param>
            <param name="p_sDBName">Data base name</param>
            <param name="p_sUserName">User name</param>
            <param name="p_sPwd">User password</param>
            <returns>String containing the search XML.</returns>
        </member>
        <member name="M:Riskmaster.Application.Search.ResultList.CreateSearchReport(System.Xml.XmlDocument,System.IO.MemoryStream@,System.String)">
            <summary>
            Creates report based on passed XML document
            </summary>
            <param name="p_objXmlDoc">The input XML document</param>
            <param name="p_objMemory">Memory object containing report</param>
            <returns>Success: 1 or Failure: 0</returns>
        </member>
        <member name="M:Riskmaster.Application.Search.ResultList.CreateNewPage(System.String,System.Boolean,System.String)">
            <summary>
            Creates a new page in a report
            </summary>
            <param name="p_sDSN">Connection string</param>
            <param name="p_bFirstPage">First page or not</param>
            <param name="p_sNumChecks">Number of Checks that need to be printed</param>
        </member>
        <member name="M:Riskmaster.Application.Search.ResultList.StartDoc(System.Boolean,System.Int32,System.Int32,System.Int32,System.Int32)">
            <summary>
            Initialize the document
            </summary>
            <param name="p_bIsLandscape">Landscape or Portrait</param>
            <param name="p_Left">Left</param>
            <param name="p_Right">Right</param>
            <param name="p_Top">Top</param>
            <param name="p_Bottom">Bottom</param>
        </member>
        <member name="M:Riskmaster.Application.Search.ResultList.SetFont(System.String,System.Double)">
             Name		: SetFont
            ************************************************************
             Amendment History
            ***************************************************
             Date Amended   *   Amendment   *    Author
            ************************************************************
             <summary>
             Set Font 
             </summary>
             <param name="p_sFontName">Font Name</param>
             <param name="p_dblFontSize">Font Size</param>
        </member>
        <member name="M:Riskmaster.Application.Search.ResultList.SetFontBold(System.Boolean)">
             Name		: SetFontBold
             Date Created: 08/01/2005	
            ************************************************************
             Amendment History
            ***************************************************
             Date Amended   *   Amendment   *    Author
             <summary>
             Set font bold
             </summary>
             <param name="p_bBold">Bool flag</param>
        </member>
        <member name="M:Riskmaster.Application.Search.ResultList.GetTextWidth(System.String)">
             Name		: GetTextWidth
             Date Created: 08/01/2005	
            ************************************************************
             Amendment History
            ************************************************************
             Date Amended   *   Amendment   *    Author
            ************************************************************
             <summary>
             Get text width.
             </summary>
             <param name="p_sText">String Text</param>
             <returns>Width</returns>
        </member>
        <member name="M:Riskmaster.Application.Search.ResultList.GetTextHeight(System.String)">
             Name		: GetTextHeight
            ************************************************************
             Amendment History
            ***************************************************
             Date Amended   *   Amendment   *    Author
            ************************************************************
             <summary>
             Get Text Height
             </summary>
             <param name="p_sText">String Text</param>
             <returns>Height</returns>
        </member>
        <member name="M:Riskmaster.Application.Search.ResultList.PrintText(System.String)">
             Name		: PrintText
            ************************************************************
             Amendment History
            ************************************************************
             Date Amended   *   Amendment   *    Author
            ************************************************************
             <summary>
             Render Text on the document.
             </summary>
             <param name="p_sPrintText">String text to print</param>
        </member>
        <member name="M:Riskmaster.Application.Search.ResultList.PrintTextNoCr(System.String)">
             Name		: PrintTextNoCr
            ************************************************************
             Amendment History
            ************************************************************
             Date Amended   *   Amendment   *    Author
             <summary>
             Render Text on the document with no "\r" on the end.
             </summary>
             <param name="p_sPrintText">String text to print</param>
        </member>
        <member name="M:Riskmaster.Application.Search.ResultList.Save(System.String)">
             Name		: Save
            ************************************************************
             Amendment History
            ************************************************************
             Date Amended   *   Amendment   *    Author
            ************************************************************
             <summary>
             Save the C1PrintDocument in PDF format.
             </summary>
             <param name="p_sPath">Path</param>
        </member>
        <member name="M:Riskmaster.Application.Search.ResultList.EndDoc">
             Name		: EndDoc
            ************************************************************
             Amendment History
            ************************************************************
             Date Amended   *   Amendment   *    Author
            ************************************************************
             <summary>
             Call the end event.
             </summary>
        </member>
        <member name="M:Riskmaster.Application.Search.ResultList.PrintHeader(System.Double@,System.Int32,System.Double,System.Double,System.Double,System.String[],System.Double[],System.String[])">
             Name		: PrintHeader
            ************************************************************
             Amendment History
            ************************************************************
             Date Amended   *   Amendment   *    Author
            ************************************************************
             <summary>
             Prints report header.
             </summary>
             <param name="p_dblCurrentY">Current Y</param>
             <param name="p_iColumnCount">Columns Count</param>
             <param name="p_dblPageWidth">Page Width</param>
             <param name="p_dblLeftMargin">Left Margin</param>
             <param name="p_dblLineHeight">Line Height</param>
             <param name="p_arrCol">Columns Text</param>
             <param name="p_arrColWidth">Columns Width</param>
             <param name="p_arrColAlign">Columns Alignment.</param>
        </member>
        <member name="M:Riskmaster.Application.Search.ResultList.CreateRow(System.Xml.XmlNode,System.Double,System.Double@,System.String[],System.Double,System.Double,System.Double[],System.Double)">
             Name		: CreateRow
            ************************************************************
             Amendment History
            ************************************************************
             Date Amended   *   Amendment   *    Author
            ************************************************************
             <summary>
             Creates a record in a report
             </summary>
             <param name="p_objData">DataRow object containing a row data</param>
             <param name="p_dblCurrentX">Current X position</param>
             <param name="p_dblCurrentY">Current Y position</param>
             <param name="p_arrColAlign">Columns alignment</param>
             <param name="p_dblLeftMargin">Left margin</param>
             <param name="p_dblLineHeight">Line height</param>
             <param name="p_arrColWidth">Column width</param>
             <param name="p_dblCharWidth">Character width</param>
             <param name="p_bLeadingLine">Leading Line Flag</param>
             <param name="p_bCalTotal">Calculate Total Flag</param>
             <param name="p_dblTotalAll">Over all Total</param>
             <param name="p_dblTotalPay">Total Payments</param>
             <param name="p_dblTotalCollect">Total Collections</param>
             <param name="p_dblTotalVoid">Total Voids</param>
        </member>
        <member name="M:Riskmaster.Application.Search.ResultList.CreateFooter(System.Double,System.Double,System.Double,System.Double)">
             Name		: CreateFooter
            ************************************************************
             Amendment History
            ************************************************************
             Date Amended   *   Amendment   *    Author
            ************************************************************
             <summary>
             Creates Report Footer
             </summary>
             <param name="p_dCurrentX">X Position</param>
             <param name="p_dCurrentY">Y Position</param>
             <param name="p_dHeight">Height</param>
             <param name="p_dblSpace">Space between 2 words</param>
        </member>
        <member name="M:Riskmaster.Application.Search.ResultList.GetRecordsPerPage">
            <summary>
            Gets the number records displayed per page 
            </summary>
            <returns></returns>
        </member>
        <member name="M:Riskmaster.Application.Search.ResultList.GetResultPage(System.Int64,System.Int32,System.String,System.Xml.XmlDocument@)">
            <summary>
            Gets the Result Page
            </summary>
            <param name="p_lPage">Page number</param>
            <param name="p_iUserId">User id</param>
            <param name="p_sResultPath">Result path</param>
            <param name="p_objSearchDom">Search XML</param>
        </member>
        <member name="M:Riskmaster.Application.Search.ResultList.GetCodeFieldRestricted(System.Xml.XmlDocument@)">
            <Summary>
            Tushar:MITS 18229
            </Summary>
        </member>
        <member name="M:Riskmaster.Application.Search.ResultList.GetOrgHierarchyChilden(System.String,System.Int32)">
            <summary>
            MGaba2:MITS 20175
            </summary>
            <param name="p_sEntityId">Entity Id of the entity which is selected in the search criteria</param>
            <param name="p_iEntityLevel">Its Org level like 1012 for department</param>
            <returns>returns a comma separated list of ids of entity itself and its children when selected in the search criteria</returns>        
        </member>
        <member name="M:Riskmaster.Application.Search.ResultList.DoSearch(System.Int32,System.Int32,System.String,System.Int64,System.Int32,System.Int32,System.Int64,System.Xml.XmlDocument,System.Xml.XmlDocument@,System.String,System.String,System.String)">
            <summary>
            This function calls the specific search module functions and in turn generates the XML out of the data obtained from the database.
            </summary>
            <param name="p_sDsn">Database connection string</param>
            <param name="p_iUserID">User id</param>
            <param name="p_iGroupID">Group id</param>
            <param name="p_sResultsPath">Path where XML file is located</param>
            <param name="p_lLookupOnlyViewID">View id corresponding to the search module</param>
            <param name="p_lPageSize">Total page size to be displayed on to the web page</param>
            <param name="p_lMaxResults">Maximum results to be displayed</param>
            <param name="p_sFinalData">Search criteria enteterd by the user</param>
            <param name="p_sSearchXMLData">Search data corresponding to the given criteria</param>
            <param name="p_sDBName">Data base name</param>
            <param name="p_sUserName">User name</param>
            <param name="p_sPwd">User password</param>
            <returns>True if search result is greater than 0 else returns false</returns>
        </member>
        <member name="M:Riskmaster.Application.Search.ResultList.GetFieldValue(System.String)">
            <summary>
            This function generates the string out of the data fetched from the Presentation Layer.
            </summary>
            <param name="p_sFieldId">Field Id</param>
            <returns>String containing the data corresponding to the given field.</returns>
        </member>
        <member name="M:Riskmaster.Application.Search.ResultList.AddUnique(System.Collections.ArrayList@,System.String)">
            <summary>
            This function adds unique tables into the given Arraylist.
            </summary>
            <param name="p_arrlstTable">Arraylist containing table names</param>
            <param name="p_sItem">Table to be added in the Arraylist</param>
        </member>
        <member name="M:Riskmaster.Application.Search.ResultList.SQLTextArg(System.String)">
            <summary>
            Quotes the string if not empty. Double quotes any single quotes so they will work.
            </summary>
            <param name="p_sArg">SQL query to be formatted</param>
            <returns>Formatted SQL query</returns>
        </member>
        <member name="M:Riskmaster.Application.Search.ResultList.GetOHUmbrella(System.Xml.XmlDocument,System.String)">
            <summary>
            </summary>
            <param name="p_objXMLDocument"></param>
            <param name="Table_Name"></param>
            <returns></returns>
        </member>
        <member name="M:Riskmaster.Application.Search.ResultList.GetUserPrefSearchXML(System.Xml.XmlDocument,System.Xml.XmlDocument@)">
            <summary>
            Author		: ngupta36
            Date Created: 05/09/2014 
            Sets the user preference for searches in user_pref_xml
            </summary>
            <param name="p_objInputDoc">XmlDocument</param>
        </member>
        <member name="M:Riskmaster.Application.Search.ResultList.CreateUserPreferXML(System.Xml.XmlDocument)">
            <summary>
            Create Default User Prefernce Xml.
            </summary>
            <param name="p_objUserPrefXML">User Preference Xml Doc</param>
            
        </member>
        <member name="P:Riskmaster.Application.Search.ResultList.PageHeight">
            <summary>
            Read property for PageHeight.
            </summary>
        </member>
        <member name="P:Riskmaster.Application.Search.ResultList.PageWidth">
            <summary>
            Read property for PageWidth.
            </summary>
        </member>
        <member name="P:Riskmaster.Application.Search.ResultList.ClientWidth">
            <summary>
            Read property for PageWidth.
            </summary>
        </member>
        <member name="P:Riskmaster.Application.Search.ResultList.CurrentX">
            <summary>
            Read/Write property for CurrentX.
            </summary>
        </member>
        <member name="P:Riskmaster.Application.Search.ResultList.CurrentY">
            <summary>
            Read/Write property for CurrentY.
            </summary>
        </member>
        <member name="P:Riskmaster.Application.Search.ResultList.TempFile">
            <summary>
            Gets unique filename
            </summary>
        </member>
        <member name="T:Riskmaster.Application.Search.SearchResults">
             <summary>
            Author  :   Sumeet Rathod
            Dated   :   24th August 2004
            Purpose :   This class queries the database and fetches the search data for the given search module.
             </summary>
        </member>
        <member name="F:Riskmaster.Application.Search.SearchResults.m_sConnectionString">
            <summary>
            Represents the connection string for the underlying Riskmaster Database.
            </summary>
        </member>
        <member name="F:Riskmaster.Application.Search.SearchResults.m_sDBType">
            <summary>
            Represents the connection string for the underlying Riskmaster Database.
            </summary>
        </member>
        <member name="F:Riskmaster.Application.Search.SearchResults.m_lUserId">
            <summary>
            Represents the User Id.
            </summary>
        </member>
        <member name="F:Riskmaster.Application.Search.SearchResults.m_lGroupId">
            <summary>
            Represents the User Id.
            </summary>
        </member>
        <member name="F:Riskmaster.Application.Search.SearchResults.m_sUserName">
            <summary>
            Represents the User Name.
            </summary>
        </member>
        <member name="F:Riskmaster.Application.Search.SearchResults.m_lTotalRecords">
            <summary>
            The total number of result records 
            </summary>
        </member>
        <!-- Badly formed XML comment ignored for member "F:Riskmaster.Application.Search.SearchResults.m_sAttachedRecord" -->
        <!-- Badly formed XML comment ignored for member "F:Riskmaster.Application.Search.SearchResults.m_bPrintSearch" -->
        <member name="F:Riskmaster.Application.Search.SearchResults.m_bFromMobileAdj">
            <summary>
            Call from Mobile Adjuster
            </summary>
        </member>
        <member name="F:Riskmaster.Application.Search.SearchResults.m_bFromMobilityAdj">
            <summary>
            /// Call from Mobility Windows Adjuster //rsharma220
            </summary>
        </member>
        <member name="F:Riskmaster.Application.Search.SearchResults.m_bFromMobileAdjClaimList">
            <summary>
            Call from Mobile Adjuster for Claim List part    
            </summary>
        </member>
        <member name="M:Riskmaster.Application.Search.SearchResults.#ctor(System.String,System.Int32)">
            <summary>
             This is default constructor.
            </summary>
            <param name="p_sConnectionstring">Database connection string</param>
            <param name="p_iClientId">cloud client ID</param>
        </member>
        <member name="M:Riskmaster.Application.Search.SearchResults.SplitUsingString(System.String,System.String)">
            <summary>
            Splitting by string : Anjaneya : MITS 11695
            </summary>
            <param name="input">Input String</param>
            <param name="split">Split pattern</param>
            <returns></returns>
        </member>
        <member name="M:Riskmaster.Application.Search.SearchResults.DoClaimSearch(System.String,System.Collections.ArrayList,System.String,System.Collections.ArrayList,System.Collections.ArrayList,System.String,System.String,System.String@,System.String@,Riskmaster.Db.DbConnection@,System.String,System.Int32,System.Int32,System.Collections.ArrayList,System.String)">
            <summary>
            This function generates the search data related to Claims module for the given search criteria.
            </summary>
            <param name="p_sOrderBy">Appends order by clause with the column name in the SQL query</param>
            <param name="p_arrlstQueryTables">Contains query tables</param>
            <param name="p_sQueryFields">Contains query fields</param>
            <param name="p_arrlstDisplayTables">Contains display tables</param>
            <param name="p_arrlstDisplayFields">Contains display fields</param>
            <param name="p_sCriteria">Contains query criteria</param>
            <param name="p_sJustFieldNames">Contains field names</param>
            <param name="p_sRetSQL">Contains the SQL statement to used to to drop temp tables</param>
            <param name="p_sClaimData">Claim data</param>
            <param name="p_objConn">Connection object as reference, as logical temp tables are made for a single connection session</param>
        </member>
        <member name="M:Riskmaster.Application.Search.SearchResults.GetResultString(System.Int32,System.Int32,Riskmaster.Db.DbConnection,System.String,System.String,System.String,System.String,System.String@)">
            <summary>
            Called by non-Hipaa related DoSearch function
            </summary>
            <param name="p_iPageSize"></param>
            <param name="p_iPageNumber"></param>
            <param name="p_objConn"></param>
            <param name="p_sFrom"></param>
            <param name="p_sFieldNames"></param>
            <param name="p_sWhere"></param>
            <param name="p_sOrderBy"></param>
            <returns></returns>
        </member>
        <member name="M:Riskmaster.Application.Search.SearchResults.GetCompleteResultString(Riskmaster.Db.DbConnection,System.String,System.String,System.String,System.String)">
            <summary>
            Returns Complete Search results for printing pdf 
            </summary>
            <param name="p_objConn"></param>
            <param name="p_sFrom"></param>
            <param name="p_sFieldNames"></param>
            <param name="p_sWhere"></param>
            <param name="p_sOrderBy"></param>
            <returns>returns complete searched records seperated by |</returns>
        </member>
        <member name="M:Riskmaster.Application.Search.SearchResults.sRetrieveAttachedRecord(System.String,System.Int32)">
            <summary>
            To Find the attached record data for diary search
            </summary>
            <returns>" Attached Record " as string </returns>
        </member>
        <member name="M:Riskmaster.Application.Search.SearchResults.sEvalDistinct(System.String)">
            <summary>
            To Evaluate Distinct String 
            </summary>
            <returns>" DISTINCT " as string </returns>
        </member>
        <member name="M:Riskmaster.Application.Search.SearchResults.sEvalDistinct(System.String,System.Collections.ArrayList)">
            <summary>
            To Evaluate Distinct String 
            </summary>
            <returns>" DISTINCT " as string </returns>
        </member>
        <member name="M:Riskmaster.Application.Search.SearchResults.CreateSMVAlias(System.Collections.ArrayList,System.String@,System.String@,System.String)">
            <summary>
            This function creates the WHERE clause for the multiple supplemental values.
            </summary>
            <param name="p_arrlstArray">Arraylist containing name of the query tables</param>
            <param name="p_sFrom">FROM part of the query</param>
            <param name="p_sWhere">WHERE part of the query</param>
            <param name="p_sField">Database field</param>
        </member>
        <!-- Badly formed XML comment ignored for member "M:Riskmaster.Application.Search.SearchResults.EventCriteriaTables(System.Collections.ArrayList,System.String@,System.String@,System.String@)" -->
        <member name="M:Riskmaster.Application.Search.SearchResults.ExecSearchSQL(System.String,Riskmaster.Db.DbConnection@)">
            <summary>
            This function executes the SQL query and creates the temporary tables for the specific search module.
            </summary>
            <param name="p_sSQL">SQL query containing statement for the creation of temp table</param>
            <param name="p_objConn">Connection object as reference, as logical temp tables are made for a single connection session</param>
        </member>
        <member name="M:Riskmaster.Application.Search.SearchResults.DeleteOracleTables(System.String)">
             Name		: DeleteOracleTables
             Author		: Parag Sarin
             Date Created: 06/21/2006		
            ************************************************************
             Amendment History
            ************************************************************
             Date Amended   *   Amendment   *    Author
            ************************************************************
             <summary>
             This function deletes ORACLE tables
             </summary>
             <param name="p_sSql">Sql query</param>
             <param name="p_sTableName">Table name</param>
        </member>
        <member name="M:Riskmaster.Application.Search.SearchResults.PrepareTempSQL(System.String)">
            <summary>
            This function generates the database specific SQL queries.
            </summary>
            <param name="p_sSQL">SQL query</param>
            <returns>String containing the database specific query.</returns>
        </member>
        <member name="M:Riskmaster.Application.Search.SearchResults.DoDB2Process(System.String,System.String,System.String@,System.Int32,System.Int32)">
             Name		: doDB2Process
             Author		: Parag Sarin
             Date Created: 11/29/2004		
            ************************************************************
             Amendment History
            ************************************************************
             Date Amended   *   Amendment   *    Author
            ************************************************************
             <summary>
             This function does the DB2 related process
             </summary>
             <param name="p_sSql">SQL query</param>
             <param name="p_sTempName">Temporary table name</param>
             <param name="p_sTemp">Temporary table name</param>
             <param name="p_iPos">Start position</param>
             <param name="p_iPosNext">Next position</param>
             <returns>string</returns>
        </member>
        <!-- Badly formed XML comment ignored for member "M:Riskmaster.Application.Search.SearchResults.JoinIt(System.String@,System.String@,System.String,System.String,System.String)" -->
        <!-- Badly formed XML comment ignored for member "M:Riskmaster.Application.Search.SearchResults.JoinIt(System.String@,System.String@,System.String,System.String,System.String,System.Int32)" -->
        <!-- Badly formed XML comment ignored for member "M:Riskmaster.Application.Search.SearchResults.JoinIt(System.String@,System.String@,System.String,System.String,System.String,System.String)" -->
        <!-- Badly formed XML comment ignored for member "M:Riskmaster.Application.Search.SearchResults.JoinIt(System.String@,System.String@,System.String,System.String,System.String,System.Boolean)" -->
        <!-- Badly formed XML comment ignored for member "M:Riskmaster.Application.Search.SearchResults.JoinIt(System.String@,System.String@,System.String,System.String,System.String,System.String,System.Boolean)" -->
        <!-- Badly formed XML comment ignored for member "M:Riskmaster.Application.Search.SearchResults.JoinIt(System.String@,System.String@,System.String,System.String,System.String,System.String,System.String)" -->
        <member name="M:Riskmaster.Application.Search.SearchResults.DropTable(System.String,System.String,Riskmaster.Db.DbConnection@)">
            <summary>
            This function drops the temporary tables.
            </summary>
            <param name="p_sTableName">Table name to be dropped</param>
            <param name="p_sSQL">SQL query</param>
            <param name="p_objConn">Connection object as reference, as logical temp tables are made for a single connection session</param>
        </member>
        <member name="M:Riskmaster.Application.Search.SearchResults.GenXMLResults(System.String,System.Int32,System.Int32,System.Int64,System.String,System.String,System.Int64,System.String,System.Collections.ArrayList,System.Collections.ArrayList,Riskmaster.Db.DbConnection@,System.String,System.Xml.XmlDocument@,System.String,System.String,System.String)">
            <summary>
            This function generates the final XML out of the data obtained from the database.
            </summary>
            <param name="p_sOutputPath">Path where final search XML needs to be stored</param>
            <param name="p_lPageSize">Page size</param>
            <param name="p_lMaxRecords">Maximum records that needs to be displayed</param>
            <param name="p_lCatID">Category id</param>
            <param name="p_sADMTable">Admin table</param>
            <param name="p_sSysEx">Soundex feature parameter</param>
            <param name="p_lEntityTableID">Entity table id</param>
            <param name="p_sData">Search data entered by the user</param>
            <param name="p_arrlstFieldTypes">Arraylist containing field types</param>
            <param name="p_arrlstColumnHeaders">Arraylist containing column headers</param>
            <param name="p_objConn">Connection object as reference, as logical temp tables are made for a single connection session</param>
            <param name="p_sSQL">SQL query</param>
            <param name="p_sSearchXMLData">Final search XML</param>
            <returns>Number of search result pages needs to be shown.</returns>
        </member>
        <member name="M:Riskmaster.Application.Search.SearchResults.FormatDisplayFieldForMobileAdjuster(System.String,System.Int32,System.Collections.ArrayList,Riskmaster.Common.LocalCache,System.Int64)">
            <summary>
            This function creates the string out of the data fetched from the database for the given search criteria.
            </summary>
            Author          :   Amandeep Kaur
            Date Created    :   09/05/2011
            <param name="p_sModuleSpecificData">Module specific like Claim, Entity data</param>
            <param name="p_iCol">Column of the Arraylist</param>
            <param name="p_arrlstFieldTypes">Field types present in the Arraylist</param>
            <returns>String with the proper format.</returns>
        </member>
        <member name="M:Riskmaster.Application.Search.SearchResults.FormatDisplayField(System.String,System.Int32,System.Collections.ArrayList,Riskmaster.Common.LocalCache,System.Int64,System.String)">
            <summary>
            This function creates the string out of the data fetched from the database for the given search criteria.
            </summary>
            <param name="p_sModuleSpecificData">Module specific like Claim, Entity data</param>
            <param name="p_iCol">Column of the Arraylist</param>
            <param name="p_arrlstFieldTypes">Field types present in the Arraylist</param>
            <returns>String with the proper format.</returns>
        </member>
        <member name="M:Riskmaster.Application.Search.SearchResults.CleanupEventSearch(System.String,Riskmaster.Db.DbConnection@)">
            <summary>
            This function drops the temporary tables related to Event module.
            </summary>
            <param name="p_sSQL">SQL query</param>
            <param name="p_objConn">Connection object as reference, as logical temp tables are made for a single connection session</param>
        </member>
        <member name="M:Riskmaster.Application.Search.SearchResults.CleanupClaimSearch(System.String,Riskmaster.Db.DbConnection@)">
            <summary>
            This function drops the temporary tables related to Claims module.
            </summary>
            <param name="p_sSQL">SQL query</param>
            <param name="p_objConn">Connection object as reference, as logical temp tables are made for a single connection session</param>
        </member>
        <member name="M:Riskmaster.Application.Search.SearchResults.CleanupPolicySearch(System.String,Riskmaster.Db.DbConnection@)">
            <summary>
            This function drops the temporary tables related to Policy module.
            </summary>
            <param name="p_sSQL">SQL query</param>
            <param name="p_objConn">Connection object as reference, as logical temp tables are made for a single connection session</param>
        </member>
        <member name="M:Riskmaster.Application.Search.SearchResults.CleanupEmployeeSearch(System.String,Riskmaster.Db.DbConnection@)">
            <summary>
            This function drops the temporary tables related to Employee module.
            </summary>
            <param name="p_sSQL">SQL query</param>
            <param name="p_objConn">Connection object as reference, as logical temp tables are made for a single connection session</param>
        </member>
        <member name="M:Riskmaster.Application.Search.SearchResults.CleanupCatastropheSearch(System.String,Riskmaster.Db.DbConnection@)">
            <summary>
            This function drops the temporary tables related to catastrophe module.
            </summary>
            <param name="p_sSQL">SQL query</param>
            <param name="p_objConn">Connection object as reference, as logical temp tables are made for a single connection session</param>
        </member>
        <member name="M:Riskmaster.Application.Search.SearchResults.CleanUpDriverSearch(System.String,Riskmaster.Db.DbConnection@)">
            <summary>
            This function drops the temporary tables related to Driver module.
            </summary>
            <param name="p_sSQL">SQL query</param>
            <param name="p_objConn">Connection object as reference, as logical temp tables are made for a single connection session</param>
        </member>
        <member name="M:Riskmaster.Application.Search.SearchResults.CleanupEntitySearch(System.String,Riskmaster.Db.DbConnection@)">
            <summary>
            This function drops the temporary tables related to Entity module.
            </summary>
            <param name="p_sSQL">SQL query</param>
            <param name="p_objConn">Connection object as reference, as logical temp tables are made for a single connection session</param>
        </member>
        <member name="M:Riskmaster.Application.Search.SearchResults.CleanupVehicleSearch(System.String,Riskmaster.Db.DbConnection@)">
            <summary>
            This function drops the temporary tables related to Vehicle module.
            </summary>
            <param name="p_sSQL">SQL query</param>
            <param name="p_objConn">Connection object as reference, as logical temp tables are made for a single connection session</param>
        </member>
        <member name="M:Riskmaster.Application.Search.SearchResults.CleanupDisPlanSearch(System.String,Riskmaster.Db.DbConnection@)">
            <summary>
            This function drops the temporary tables related to Disability Plan module.
            </summary>
            <param name="p_sSQL">SQL query</param>
            <param name="p_objConn">Connection object as reference, as logical temp tables are made for a single connection session</param>
        </member>
        <member name="M:Riskmaster.Application.Search.SearchResults.CleanupLeavePlanSearch(System.String,Riskmaster.Db.DbConnection@)">
            <summary>
            This function drops the temporary tables related to Leave Plan module.
            </summary>
            <param name="p_sSQL">SQL query</param>
            <param name="p_objConn">Connection object as reference, as logical temp tables are made for a single connection session</param>
        </member>
        <member name="M:Riskmaster.Application.Search.SearchResults.CleanupPatientSearch(System.String,Riskmaster.Db.DbConnection@)">
            <summary>
            This function drops the temporary tables related to Patient module.
            </summary>
            <param name="p_sSQL">SQL query</param>
            <param name="p_objConn">Connection object as reference, as logical temp tables are made for a single connection session</param>
        </member>
        <member name="M:Riskmaster.Application.Search.SearchResults.CleanupPhysicianSearch(System.String,Riskmaster.Db.DbConnection@)">
            <summary>
            This function drops the temporary tables related to Physician module.
            </summary>
            <param name="p_sSQL">SQL query</param>
            <param name="p_objConn">Connection object as reference, as logical temp tables are made for a single connection session</param>
        </member>
        <member name="M:Riskmaster.Application.Search.SearchResults.CleanupMedStaffSearch(System.String,Riskmaster.Db.DbConnection@)">
            <summary>
            This function drops the temporary tables related to Medical Staff module.
            </summary>
            <param name="p_sSQL">SQL query</param>
            <param name="p_objConn">Connection object as reference, as logical temp tables are made for a single connection session</param>
        </member>
        <member name="M:Riskmaster.Application.Search.SearchResults.CleanupPaymentSearch(System.String,Riskmaster.Db.DbConnection@)">
            <summary>
            This function drops the temporary tables related to Payment module.
            </summary>
            <param name="p_sSQL">SQL query</param>
            <param name="p_objConn">Connection object as reference, as logical temp tables are made for a single connection session</param>
        </member>
        <member name="M:Riskmaster.Application.Search.SearchResults.CleanupEnhPolicySearch(System.String,Riskmaster.Db.DbConnection@)">
             Name		: CleanupEnhPolicySearch
             Author		: Naresh Chandra Padhy
             Date Created: 01/23/2007
            ************************************************************
             Amendment History
            ************************************************************
             Date Amended   *   Amendment   *    Author
            ************************************************************
             <summary>
             This function drops the temporary tables related to Enhanced Policy module.
             </summary>
             <param name="p_sSQL">SQL query</param>
             <param name="p_objConn">Connection object as reference, as logical temp tables are made for a single connection session</param>
        </member>
        <member name="M:Riskmaster.Application.Search.SearchResults.CleanupPropertySearch(System.String,Riskmaster.Db.DbConnection@)">
            <summary>
            This function drops the temporary tables related to Property module.
            </summary>
            <param name="p_sSQL">SQL query</param>
            <param name="p_objConn">Connection object as reference, as logical temp tables are made for a single connection session</param> 
        </member>
        <member name="M:Riskmaster.Application.Search.SearchResults.CleanupDiarySearch(System.String,Riskmaster.Db.DbConnection@)">
            <summary>
            This function drops the temporary tables related to Property module.
            </summary>
            <param name="p_sSQL">SQL query</param>
            <param name="p_objConn">Connection object as reference, as logical temp tables are made for a single connection session</param> 
        </member>
        <member name="M:Riskmaster.Application.Search.SearchResults.DoEventSearch(System.String,System.Collections.ArrayList,System.String,System.Collections.ArrayList,System.Collections.ArrayList,System.String,System.String,System.String@,System.String@,Riskmaster.Db.DbConnection@,System.String,System.Int32,System.Int32,System.String)">
            <summary>
            This function generates the search data related to Event module for the given search criteria.
            </summary>
            <param name="p_sOrderBy">Appends order by clause with the column name in the SQL query</param>
            <param name="p_arrlstQueryTables">Contains query tables</param>
            <param name="p_sQueryFields">Contains query fields</param>
            <param name="p_arrlstDisplayTables">Contains display tables</param>
            <param name="p_arrlstDisplayFields">Contains display fields</param>
            <param name="p_sCriteria">Contains query criteria</param>
            <param name="p_sJustFieldNames">Contains field names</param>
            <param name="p_sRetSQL">Contains the SQL statement to used to to drop temp tables</param>
            <param name="p_sEventData">Event Data</param>
            <param name="p_objConn">Connection object as reference, as logical temp tables are made for a single connection session</param>
        </member>
        <member name="M:Riskmaster.Application.Search.SearchResults.DoCatastropheSearch(System.String,System.Collections.ArrayList,System.String,System.Collections.ArrayList,System.Collections.ArrayList,System.String,System.String,System.Int64,System.String@,System.String@,System.String,Riskmaster.Db.DbConnection@,System.Int32,System.Int32,System.String)">
            <summary>
            This function generates the search data related to Entity module for the given search criteria.
            </summary>
            <param name="p_sOrderBy">Appends order by clause with the column name in the SQL query</param>
            <param name="p_arrlstQueryTables">Contains query tables</param>
            <param name="p_sQueryFields">Contains query fields</param>
            <param name="p_arrlstDisplayTables">Contains display tables</param>
            <param name="p_arrlstDisplayFields">Contains display fields</param>
            <param name="p_sCriteria">Contains query criteria</param>
            <param name="p_sJustFieldNames">Contains field names</param>
            <param name="p_lEntityTableRestrict">Retricts number of enity tables to be displayed</param>
            <param name="p_sRetSQL">Contains the SQL statement to used to to drop temp tables</param>
            <param name="p_sEntityData">Catastrophe Data</param>
            <param name="p_sSysEx">Soundex feature parameter</param>
            <param name="p_objConn">Connection object as reference, as logical temp tables are made for a single connection session</param>
            
        </member>
        <member name="M:Riskmaster.Application.Search.SearchResults.DoDriverSearch(System.String,System.Collections.ArrayList,System.String,System.Collections.ArrayList,System.Collections.ArrayList,System.String,System.String,System.Int64,System.String@,System.String@,System.String,Riskmaster.Db.DbConnection@,System.Int32,System.Int32,System.String)">
            <summary>
            This function generates the search data related to Entity module for the given search criteria.
            </summary>
            <param name="p_sOrderBy">Appends order by clause with the column name in the SQL query</param>
            <param name="p_arrlstQueryTables">Contains query tables</param>
            <param name="p_sQueryFields">Contains query fields</param>
            <param name="p_arrlstDisplayTables">Contains display tables</param>
            <param name="p_arrlstDisplayFields">Contains display fields</param>
            <param name="p_sCriteria">Contains query criteria</param>
            <param name="p_sJustFieldNames">Contains field names</param>
            <param name="p_lEntityTableRestrict">Retricts number of enity tables to be displayed</param>
            <param name="p_sRetSQL">Contains the SQL statement to used to to drop temp tables</param>
            <param name="p_sEntityData">Catastrophe Data</param>
            <param name="p_sSysEx">Soundex feature parameter</param>
            <param name="p_objConn">Connection object as reference, as logical temp tables are made for a single connection session</param>
            
        </member>
        <member name="M:Riskmaster.Application.Search.SearchResults.DoEntitySearch(System.String,System.Collections.ArrayList,System.String,System.Collections.ArrayList,System.Collections.ArrayList,System.String,System.String,System.Int64,System.String@,System.String@,System.String,Riskmaster.Db.DbConnection@,System.Int32,System.Int32,System.String)">
            <summary>
            This function generates the search data related to Entity module for the given search criteria.
            </summary>
            <param name="p_sOrderBy">Appends order by clause with the column name in the SQL query</param>
            <param name="p_arrlstQueryTables">Contains query tables</param>
            <param name="p_sQueryFields">Contains query fields</param>
            <param name="p_arrlstDisplayTables">Contains display tables</param>
            <param name="p_arrlstDisplayFields">Contains display fields</param>
            <param name="p_sCriteria">Contains query criteria</param>
            <param name="p_sJustFieldNames">Contains field names</param>
            <param name="p_lEntityTableRestrict">Retricts number of enity tables to be displayed</param>
            <param name="p_sRetSQL">Contains the SQL statement to used to to drop temp tables</param>
            <param name="p_sEntityData">Entity Data</param>
            <param name="p_sSysEx">Soundex feature parameter</param>
            <param name="p_objConn">Connection object as reference, as logical temp tables are made for a single connection session</param>
        </member>
        <member name="M:Riskmaster.Application.Search.SearchResults.DoPatientSearch(System.String,System.Collections.ArrayList,System.String,System.Collections.ArrayList,System.Collections.ArrayList,System.String,System.String,System.String@,System.String@,Riskmaster.Db.DbConnection@,System.String,System.Int32,System.Int32,System.String,System.Boolean)">
            <summary>
            This function generates the search data related to Patient module for the given search criteria.
            </summary>
            <param name="p_sOrderBy">Appends order by clause with the column name in the SQL query</param>
            <param name="p_arrlstQueryTables">Contains query tables</param>
            <param name="p_sQueryFields">Contains query fields</param>
            <param name="p_arrlstDisplayTables">Contains display tables</param>
            <param name="p_arrlstDisplayFields">Contains display fields</param>
            <param name="p_sCriteria">Contains query criteria</param>
            <param name="p_sJustFieldNames">Contains field names</param>
            <param name="p_sRetSQL">Contains the SQL statement to used to to drop temp tables</param>
            <param name="p_sPatientData">Patient data</param>
            <param name="p_objConn">Connection object as reference, as logical temp tables are made for a single connection session</param>
            <param name="p_sOrgLevel">The P_S org level.</param>
            <param name="p_iPageSize">Size of the p_i page.</param>
            <param name="p_iPageNumber">The p_i page number.</param>
            <param name="p_sUserName">Name of the P_S user.</param>
            <param name="dedupePatients">if set to <c>true</c> [dedupe patients].</param>
        </member>
        <member name="M:Riskmaster.Application.Search.SearchResults.DoPolicySearch(System.String,System.Collections.ArrayList,System.String,System.Collections.ArrayList,System.Collections.ArrayList,System.String,System.String,System.Int64,System.String@,System.String@,Riskmaster.Db.DbConnection@,System.Int32,System.Int32)">
            <summary>
            This function generates the search data related to Policy module for the given search criteria.
            </summary>
            <param name="p_sOrderBy">Appends order by clause with the column name in the SQL query</param>
            <param name="p_arrlstQueryTables">Contains query tables</param>
            <param name="p_sQueryFields">Contains query fields</param>
            <param name="p_arrlstDisplayTables">Contains display tables</param>
            <param name="p_arrlstDisplayFields">Contains display fields</param>
            <param name="p_sCriteria">Contains query criteria</param>
            <param name="p_sJustFieldNames">Contains field names</param>
            <param name="p_lPolicyRestrict">Restricts the number of policy to be displayed</param>
            <param name="p_sRetSQL">Contains the SQL statement to used to to drop temp tables</param>
            <param name="p_sPolicyData">Policy data</param>
            <param name="p_objConn">Connection object as reference, as logical temp tables are made for a single connection session</param>
        </member>
        <member name="M:Riskmaster.Application.Search.SearchResults.DoPhysicianSearch(System.String,System.Collections.ArrayList,System.String,System.Collections.ArrayList,System.Collections.ArrayList,System.String,System.String,System.String@,System.String@,Riskmaster.Db.DbConnection@,System.String,System.Int32,System.Int32)">
            <summary>
            This function generates the search data related to Physician module for the given search criteria.
            </summary>
            <param name="p_sOrderBy">Appends order by clause with the column name in the SQL query</param>
            <param name="p_arrlstQueryTables">Contains query tables</param>
            <param name="p_sQueryFields">Contains query fields</param>
            <param name="p_arrlstDisplayTables">Contains display tables</param>
            <param name="p_arrlstDisplayFields">Contains display fields</param>
            <param name="p_sCriteria">Contains query criteria</param>
            <param name="p_sJustFieldNames">Contains field names</param>
            <param name="p_sRetSQL">Contains the SQL statement to used to to drop temp tables</param>
            <param name="p_sPhysicianData">Physician data</param>
            <param name="p_objConn">Connection object as reference, as logical temp tables are made for a single connection session</param>
        </member>
        <member name="M:Riskmaster.Application.Search.SearchResults.DoMedStaffSearch(System.String,System.Collections.ArrayList,System.String,System.Collections.ArrayList,System.Collections.ArrayList,System.String,System.String,System.String@,System.String@,Riskmaster.Db.DbConnection@,System.String,System.Int32,System.Int32)">
            <summary>
            This function generates the search data related to Medical Staff module for the given search criteria.
            </summary>
            <param name="p_sOrderBy">Appends order by clause with the column name in the SQL query</param>
            <param name="p_arrlstQueryTables">Contains query tables</param>
            <param name="p_sQueryFields">Contains query fields</param>
            <param name="p_arrlstDisplayTables">Contains display tables</param>
            <param name="p_arrlstDisplayFields">Contains display fields</param>
            <param name="p_sCriteria">Contains query criteria</param>
            <param name="p_sJustFieldNames">Contains field names</param>
            <param name="p_sRetSQL">Contains the SQL statement to used to to drop temp tables</param>
            <param name="p_sMedStaffData">Medical staff data</param>
            <param name="p_objConn">Connection object as reference, as logical temp tables are made for a single connection session</param>
        </member>
        <member name="M:Riskmaster.Application.Search.SearchResults.DoEmployeeSearch(System.String,System.Collections.ArrayList,System.String,System.Collections.ArrayList,System.Collections.ArrayList,System.String,System.String,System.String@,System.String@,Riskmaster.Db.DbConnection@,System.String,System.Int32,System.Int32)">
            <summary>
            This function generates the search data related to Employee module for the given search criteria.
            </summary>
            <param name="p_sOrderBy">Appends order by clause with the column name in the SQL query</param>
            <param name="p_arrlstQueryTables">Contains query tables</param>
            <param name="p_sQueryFields">Contains query fields</param>
            <param name="p_arrlstDisplayTables">Contains display tables</param>
            <param name="p_arrlstDisplayFields">Contains display fields</param>
            <param name="p_sCriteria">Contains query criteria</param>
            <param name="p_sJustFieldNames">Contains field names</param>
            <param name="p_sRetSQL">Contains the SQL statement to used to to drop temp tables</param>
            <param name="p_sEmployeeData">Employee Data</param>
            <param name="p_objConn">Connection object as reference, as logical temp tables are made for a single connection session</param>
        </member>
        <member name="M:Riskmaster.Application.Search.SearchResults.DoPaymentSearch(System.String,System.Collections.ArrayList,System.String,System.Collections.ArrayList,System.Collections.ArrayList,System.String,System.String,System.String@,System.String@,Riskmaster.Db.DbConnection@,System.Int32,System.Int32,System.Collections.ArrayList)">
            <summary>
            This function generates the search data related to Payment module for the given search criteria.
            </summary>
            <param name="p_sOrderBy">Appends order by clause with the column name in the SQL query</param>
            <param name="p_arrlstQueryTables">Contains query tables</param>
            <param name="p_sQueryFields">Contains query fields</param>
            <param name="p_arrlstDisplayTables">Contains display tables</param>
            <param name="p_arrlstDisplayFields">Contains display fields</param>
            <param name="p_sCriteria">Contains query criteria</param>
            <param name="p_sJustFieldNames">Contains field names</param>
            <param name="p_sRetSQL">Contains the SQL statement to used to to drop temp tables</param>
            <param name="p_sPaymentData">Payment data</param>
            <param name="p_objConn">Connection object as reference, as logical temp tables are made for a single connection session</param>
        </member>
        <member name="M:Riskmaster.Application.Search.SearchResults.DoVehicleSearch(System.String,System.Collections.ArrayList,System.String,System.Collections.ArrayList,System.Collections.ArrayList,System.String,System.String,System.String@,System.String@,Riskmaster.Db.DbConnection@,System.String,System.Int32,System.Int32)">
            <summary>
            This function generates the search data related to Vehicles module for the given search criteria.
            </summary>
            <param name="p_sOrderBy">Appends order by clause with the column name in the SQL query</param>
            <param name="p_arrlstQueryTables">Contains query tables</param>
            <param name="p_sQueryFields">Contains query fields</param>
            <param name="p_arrlstDisplayTables">Contains display tables</param>
            <param name="p_arrlstDisplayFields">Contains display fields</param>
            <param name="p_sCriteria">Contains query criteria</param>
            <param name="p_sJustFieldNames">Contains field names</param>
            <param name="p_sRetSQL">Contains the SQL statement to used to to drop temp tables</param>
            <param name="p_sVehicleData">Vehicle data</param>
            <param name="p_objConn">Connection object as reference, as logical temp tables are made for a single connection session</param>
        </member>
        <member name="M:Riskmaster.Application.Search.SearchResults.DoPropertySearch(System.String,System.Collections.ArrayList,System.String,System.Collections.ArrayList,System.Collections.ArrayList,System.String,System.String,System.String@,System.String@,Riskmaster.Db.DbConnection@,System.Int32,System.Int32)">
            <summary>
            This function generates the search data related to Property module for the given search criteria.
            </summary>
            <param name="p_sOrderBy">Appends order by clause with the column name in the SQL query</param>
            <param name="p_arrlstQueryTables">Contains query tables</param>
            <param name="p_sQueryFields">Contains query fields</param>
            <param name="p_arrlstDisplayTables">Contains display tables</param>
            <param name="p_arrlstDisplayFields">Contains display fields</param>
            <param name="p_sCriteria">Contains query criteria</param>
            <param name="p_sJustFieldNames">Contains field names</param>
            <param name="p_sRetSQL">Contains the SQL statement to used to to drop temp tables</param>
            <param name="p_sPropertyData">Property data</param>
            <param name="p_objConn">Connection object as reference, as logical temp tables are made for a single connection session</param>
            <param name="p_iPageSize">The Page Size</param>
            <param name="p_iPageNumber">Page Number</param>
        </member>
        <member name="M:Riskmaster.Application.Search.SearchResults.DoWPADiarySearch(System.String,System.String,System.Collections.ArrayList,System.String,System.Collections.ArrayList,System.Collections.ArrayList,System.String,System.String,System.String@,System.String@,Riskmaster.Db.DbConnection@,System.Int32,System.Int32)">
            <summary>
            This function generates the search data related to Diary module for the given search criteria.
            </summary>
            <param name="p_sOrderBy">Appends order by clause with the column name in the SQL query</param>
            <param name="p_arrlstQueryTables">Contains query tables</param>
            <param name="p_sQueryFields">Contains query fields</param>
            <param name="p_arrlstDisplayTables">Contains display tables</param>
            <param name="p_arrlstDisplayFields">Contains display fields</param>
            <param name="p_sCriteria">Contains query criteria</param>
            <param name="p_sJustFieldNames">Contains field names</param>
            <param name="p_sRetSQL">Contains the SQL statement to used to to drop temp tables</param>
            <param name="p_sPropertyData">Property data</param>
            <param name="p_objConn">Connection object as reference, as logical temp tables are made for a single connection session</param>
            <param name="p_iPageSize">The Page Size</param>
            <param name="p_iPageNumber">Page Number</param>
             /// <param name="p_sAttachedRecord">Atatched Record Table</param>
        </member>
        <member name="M:Riskmaster.Application.Search.SearchResults.DoATSearch(System.String,System.Collections.ArrayList,System.String,System.Collections.ArrayList,System.Collections.ArrayList,System.String,System.String,System.String,System.String@,Riskmaster.Db.DbConnection@,System.Int32,System.Int32,System.String@)">
            <summary>
            This function generates the search data related to Admin tracking module for the given search criteria.
            </summary>
            <param name="p_sOrderBy">Appends order by clause with the column name in the SQL query</param>
            <param name="p_arrlstQueryTables">Contains query tables</param>
            <param name="p_sQueryFields">Contains query fields</param>
            <param name="p_arrlstDisplayTables">Contains display tables</param>
            <param name="p_arrlstDisplayFields">Contains display fields</param>
            <param name="p_sCriteria">Contains query criteria</param>
            <param name="p_sJustFieldNames">Contains field names</param>
            <param name="p_sSysKeyField">Contains System key field</param>
            <param name="p_sATData">Admin tracking data</param>
            <param name="p_objConn">Connection object as reference as logical temp tables are made for a single connection session</param>
        </member>
        <member name="M:Riskmaster.Application.Search.SearchResults.DoDisPlanSearch(System.String,System.Collections.ArrayList,System.String,System.Collections.ArrayList,System.Collections.ArrayList,System.String,System.String,System.String@,System.String@,Riskmaster.Db.DbConnection@,System.Int32,System.Int32)">
            <summary>
            This function generates the search data related to Disability Plan module for the given search criteria.
            </summary>
            <param name="p_sOrderBy">Appends order by clause with the column name in the SQL query</param>
            <param name="p_arrlstQueryTables">Contains query tables</param>
            <param name="p_sQueryFields">Contains query fields</param>
            <param name="p_arrlstDisplayTables">Contains display tables</param>
            <param name="p_arrlstDisplayFields">Contains display fields</param>
            <param name="p_sCriteria">Contains query criteria</param>
            <param name="p_sJustFieldNames">Contains field names</param>
            <param name="p_sRetSQL">Contains the SQL statement to used to to drop temp tables</param>
            <param name="p_sDisPlanData">Disability Plan data</param>
            <param name="p_objConn">Connection object as reference, as logical temp tables are made for a single connection session</param>
        </member>
        <member name="M:Riskmaster.Application.Search.SearchResults.DoLeavePlanSearch(System.String,System.Collections.ArrayList,System.String,System.Collections.ArrayList,System.Collections.ArrayList,System.String,System.String,System.String@,System.String@,Riskmaster.Db.DbConnection@,System.Int32,System.Int32)">
            <summary>
            This function generates the search data related to Leave Plan module for the given search criteria.
            </summary>
            <param name="p_sOrderBy">Appends order by clause with the column name in the SQL query</param>
            <param name="p_arrlstQueryTables">Contains query tables</param>
            <param name="p_sQueryFields">Contains query fields</param>
            <param name="p_arrlstDisplayTables">Contains display tables</param>
            <param name="p_arrlstDisplayFields">Contains display fields</param>
            <param name="p_sCriteria">Contains query criteria</param>
            <param name="p_sJustFieldNames">Contains field names</param>
            <param name="p_sRetSQL">Contains the SQL statement to used to to drop temp tables</param>
            <param name="p_sDisPlanData">Leave Plan data</param>
            <param name="p_objConn">Connection object as reference, as logical temp tables are made for a single connection session</param>
        </member>
        <member name="M:Riskmaster.Application.Search.SearchResults.DoENHPolicySearch(System.String,System.Collections.ArrayList,System.String,System.Collections.ArrayList,System.Collections.ArrayList,System.String,System.String,System.Int64,System.String@,System.String@,Riskmaster.Db.DbConnection@,System.Int32,System.Int32,System.String)">
             Name		: DoENHPolicySearch
             Author		: Naresh Chandra Padhy
             Date Created: 01/23/2007
            ************************************************************
             Amendment History
            ************************************************************
             Date Amended   *   Amendment   *    Author
            ************************************************************
             <summary>
             This function generates the search data related to Enhanced Policy module for the given search criteria.
             </summary>
             <param name="p_sOrderBy">Appends order by clause with the column name in the SQL query</param>
             <param name="p_arrlstQueryTables">Contains query tables</param>
             <param name="p_sQueryFields">Contains query fields</param>
             <param name="p_arrlstDisplayTables">Contains display tables</param>
             <param name="p_arrlstDisplayFields">Contains display fields</param>
             <param name="p_sCriteria">Contains query criteria</param>
             <param name="p_sJustFieldNames">Contains field names</param>
             <param name="p_lPolicyRestrict">Restricts the number of policy to be displayed</param>
             <param name="p_sRetSQL">Contains the SQL statement to used to to drop temp tables</param>
             <param name="p_sPolicyData">Policy data</param>
             <param name="p_objConn">Connection object as reference, as logical temp tables are made for a single connection session</param>
             <param name="p_iPageSize">The Page Size</param>
             <param name="p_iPageNumber">Page Number</param>
        </member>
        <member name="M:Riskmaster.Application.Search.SearchResults.GetPolicyTypeFormName(System.Int32)">
            <summary>
            Returns the name of form (aspx) depending on the type of the Policy.
            Author : Mridul.
            MITS#:18229
            </summary>
            <param name="p_iPolicyId">Policy ID</param>
            <returns>Name of aspx page</returns>
        </member>
        <!-- Badly formed XML comment ignored for member "P:Riskmaster.Application.Search.SearchResults.UserId" -->
        <member name="P:Riskmaster.Application.Search.SearchResults.AttachedRecordColumn">
            <summary>
            Attached Record Property for Diary Search//skhare7
            </summary>
        </member>
        <!-- Badly formed XML comment ignored for member "P:Riskmaster.Application.Search.SearchResults.SysSettingsGlobal" -->
        <member name="T:Riskmaster.Application.Search.SearchXML">
             <summary>
            Author  :   Sumeet Rathod
            Dated   :   24th August 2004
            Purpose :   This class generates the XML corresponding to the search view.
             </summary>
        </member>
        <member name="F:Riskmaster.Application.Search.SearchXML.m_objDmf">
            <summary>
            The DataModelFactory Object.
            </summary>		
        </member>
        <member name="F:Riskmaster.Application.Search.SearchXML.m_lDSN">
            <summary>
            Represents the DSN id.
            </summary>
        </member>
        <member name="F:Riskmaster.Application.Search.SearchXML.m_sConnectionString">
            <summary>
            Represents the connection string for the underlying Riskmaster Database.
            </summary>
        </member>
        <member name="F:Riskmaster.Application.Search.SearchXML.m_iClientId">
            <summary>
            ClientId for multi-tenancy, cloud
            </summary>
        </member>
        <member name="M:Riskmaster.Application.Search.SearchXML.#ctor(System.String,System.Int32)">
            <summary>
            This is default constructor.
            </summary>
            <param name="p_sConnectionstring">Database connection string</param>
        </member>
        <member name="M:Riskmaster.Application.Search.SearchXML.#ctor(Riskmaster.DataModel.DataModelFactory)">
            <summary>
            Overloaded constructor, which sets the DataModelFactory Object.
            </summary>
            <param name="p_objDmf"> The DataModelFactory Object</param>
        </member>
        <member name="M:Riskmaster.Application.Search.SearchXML.GetSearchXML(System.Int32@,System.Int32,System.Int32,System.String,System.String,System.String,System.Xml.XmlDocument@,System.String,System.String,System.String,System.String,System.String)">
            <summary>
            This function generates the XML containing fields corresponding to the given search criteria.
            </summary>
            <param name="p_iViewId">View id corresponding to the search module</param>
            <param name="p_iUserID">User id</param>
            <param name="p_iGroupID">Group id</param>
            <param name="p_sTableRestrict">Table restriction</param>
            <param name="p_sFormName">Form Name</param>
            <param name="p_sSettings">Settings related to the display</param>
            <param name="p_objXML">XML document containing the final search XML</param>
        </member>
        <member name="M:Riskmaster.Application.Search.SearchXML.CreateSearchView(System.Int32,System.Int32,System.Int32,System.String,System.String,System.String,System.String,System.String,System.String,System.String,System.String,System.Boolean)">
            <param name="p_sFieldRestrict">Restricted field will not display</param>
        </member>
        <member name="M:Riskmaster.Application.Search.SearchXML.GetSearchResultsForSelectedEntity(System.Int32,System.String,System.Int32,System.String)">
            <summary>
            This function retrieves the record for passed in Entity-Id.
            </summary>
            <param name="p_iEntityId">The Entity Id for which the results have to be returned</param>
            <param name="p_sType">The Type of entity</param>
            <param name="p_iLookUpType"></param>
            <param name="p_sFormName"> The Form Name</param>
            <returns>XML DOM containing data corresponding to passed in entity ID.</returns>
        </member>
        <member name="M:Riskmaster.Application.Search.SearchXML.AddNewEntity(System.String,System.String,System.String)">
            <summary>
            This function retrieves the record for passed in Entity-Id.
            </summary>
            <param name="p_sLastName">The Entity last name send from UI</param>
            <param name="p_sFirstName">The Entity First name send from UI</param>
            <param name="p_sFormName"> The Form Name</param>
            <returns>XML DOM </returns>
             //skhare7 R8 26969
             // Start : Changed By : ngupta73 MITS No : 29409
            AddNewEntity(XmlDocument p_objXmlIn, ref XmlDocument p_objXmlOut, ref BusinessAdaptorErrors p_objErrOut)
        </member>
        <member name="M:Riskmaster.Application.Search.SearchXML.GetBestSearch(System.String,System.Int32,System.Int32,System.Boolean)">
            <summary>
            This function retrieves the best view Id.
            </summary>
            <param name="p_sSearchCat"></param>
            <param name="p_iGroupId"></param>
            <param name="p_iUserId"></param>
            <returns>The View Id</returns>
        </member>
        <member name="P:Riskmaster.Application.Search.SearchXML.DSNId">
            <summary>
            This property sets the DSN name for the underlying Riskmaster database.
            </summary>
        </member>
    </members>
</doc>
