<?xml version="1.0"?>
<doc>
    <assembly>
        <name>Riskmaster.Common.Globalization</name>
    </assembly>
    <members>
        <member name="T:Riskmaster.Common.Globalization">
            <summary>
            Riskmaster.Common.Globalization provides access to methods to ease internationalization efforts.</summary>
            <remarks>none</remarks>
        </member>
        <member name="F:Riskmaster.Common.Globalization.BUSINESS_ENTITY_ROLE">
            <summary>
            Represents GLOSSARY_TYPE_CODE = 4
            Value must be in Lower case as we are using it in switch case statements
            </summary>
        </member>
        <member name="F:Riskmaster.Common.Globalization.PEOPLE_ENTITY_ROLE">
            <summary>
            Represents GLOSSARY_TYPE_CODE = 7
            Value must be in Lower case as we are using it in switch case statements
            </summary>
        </member>
        <member name="F:Riskmaster.Common.Globalization.DN_BUSINESS_ENTITY_ROLE">
            <summary>
            Represents Display Name for GLOSSARY_TYPE_CODE = 4
            </summary>
        </member>
        <member name="F:Riskmaster.Common.Globalization.DN_PEOPLE_ENTITY_ROLE">
            <summary>
            Represents Display Name for GLOSSARY_TYPE_CODE = 7
            </summary>
        </member>
        <member name="F:Riskmaster.Common.Globalization.GLOSSARY_TABLE_NAME">
            <summary>
            Represents Glossary Table Name
            </summary>
        </member>
        <member name="F:Riskmaster.Common.Globalization.LAST_UPDATED_ID">
            <summary>
            Represents Glossary Table Name
            </summary>
        </member>
        <member name="F:Riskmaster.Common.Globalization.m_resourceManagers">
            <summary>
            m_resourceManagers stores a pool of resource managers to ease internationalization efforts.
            Using this method to get a ResourceManager in Riskmaster code 
            minimizes memory requirements.</summary>
        </member>
        <member name="M:Riskmaster.Common.Globalization.GetResourceManager(System.Reflection.Assembly)">
            <summary>
            Riskmaster.Common.Globalization.GetResourceManager provides internal access to a single
            ResourceManager object for internal use by the GetString and GetObject static methods.</summary>
        </member>
        <member name="M:Riskmaster.Common.Globalization.GetString(System.String,System.String)">
            <summary>
            Scripting assembly overload for GetString
            </summary>     
        </member>
        <member name="M:Riskmaster.Common.Globalization.GetString(System.String,System.Int32,System.String)">
            <summary>
            Riskmaster.Common.Globalization.GetString provides simplified resource string retrieval 
            for all Riskmaster assemblies.</summary>
        </member>
        <member name="M:Riskmaster.Common.Globalization.FilterBusinessMessage(System.String,System.String)">
            <summary>
            Update the error message according to the language code
            </summary>
            <param name="p_sKeyValue"></param>
            <param name="p_sLangCode"></param>
            <returns></returns>
        </member>
        <member name="M:Riskmaster.Common.Globalization.GetObject(System.String)">
            <summary>
            Riskmaster.Common.Globalization.GetObject provides simplified resource object retrieval 
            for all Riskmaster assemblies.</summary>
        </member>
        <member name="M:Riskmaster.Common.Globalization.GetLocalResourceString(System.String,System.Int32,System.String)">
            <summary>
            Scripting assembly overload for GetLocalResourceString
            </summary>     
        </member>
        <member name="M:Riskmaster.Common.Globalization.GetLocalResourceString(System.String,System.Int32,System.String,System.Int32)">
            <summary>
            Riskmaster.Common.Globalization.GetLocalResourceString provides simplified resource string retrieval from LOCAL_RESOURCE Table
            for all Riskmaster assemblies.</summary>
        </member>
        <!-- Badly formed XML comment ignored for member "M:Riskmaster.Common.Globalization.CheckCallingStack(System.String)" -->
        <member name="M:Riskmaster.Common.Globalization.GetPageId(System.String,System.Int32)">
            <summary>
            Get Page Id from Page Name
            </summary>
            <param name="sPageName">For example, FinacialHistoryDetail.aspx</param>
            <param name="iClientId">Client ID</param>
            <returns>Page ID</returns>
        </member>
        <member name="P:Riskmaster.Common.Globalization.ResourceManager">
            <summary>
            Riskmaster.Common.Globalization.ResourceManager provides simplified access to a single
            ResourceManager object to ease internationalization efforts.</summary>
            <remarks>none</remarks>
        </member>
    </members>
</doc>
