<?xml version="1.0"?>
<doc>
    <assembly>
        <name>Riskmaster.Application.DataIntegrator</name>
    </assembly>
    <members>
        <member name="F:Riskmaster.Application.DataIntegrator.Settings.m_iISOPageSize">
            <summary>
            Stores the PageSize of the Tier Grid
            </summary>
        </member>
        <!-- Badly formed XML comment ignored for member "F:Riskmaster.Application.DataIntegrator.Settings.m_iISOCurrentPage" -->
        <member name="M:Riskmaster.Application.DataIntegrator.Settings.#ctor(System.Int32)">
            <summary>
            //Developer - Subhendu | Template - DA CLAIM EXPORT CSSTARS | Start -Default Constructor
            </summary>
        </member>
        <member name="M:Riskmaster.Application.DataIntegrator.Settings.GetPolicySupp">
            <summary>
            Developer :- Subhendu | Module - DA CLAIM EXPORT CSSTARS | Function - Retrieve column details for table Policy_supp
            </summary>
            <returns></returns>
        </member>
        <member name="M:Riskmaster.Application.DataIntegrator.Settings.GetECTableName">
            <summary>
            Manika : Vsoni5 : 07/13/2011 : MITS 24924 : New function added to retrieve tables of Entity Type
            </summary>
            <returns></returns>
        </member>
        <member name="M:Riskmaster.Application.DataIntegrator.Settings.GetPeopleTableName">
            <summary>
            Manika : Vsoni5 : 07/13/2011 : MITS 24924 : New function added to retrieve tables of People Type
            </summary>
            <returns></returns>
        </member>
        <!-- Badly formed XML comment ignored for member "M:Riskmaster.Application.DataIntegrator.Settings.GetUserName(System.String,System.Int32,System.String)" -->
        <member name="M:Riskmaster.Application.DataIntegrator.Settings.GetPolicyClaimType(System.Int32)">
            <summary>
            Developer - Subhendu/Ihtesham : MITS 30839 : Function GetPolicyClaimType to fetch Claim Type based on selected Policy LOB or Claim LOB: Start
            </summary>
            <param name="iPolicy"></param>
            <returns></returns>
        </member>
        <member name="M:Riskmaster.Application.DataIntegrator.Settings.GetPolicyCoverageType(System.Int32,System.Int32)">
            <summary>
            Developer - Subhendu/Ihtesham : MITS 30839 : Function GetPolicyCoverageType to fetch Coverage Type based on selected Policy LOB or Claim LOB: Start
            </summary>
            <param name="iPolicy"></param>
            <returns></returns>
        </member>
        <member name="M:Riskmaster.Application.DataIntegrator.Settings.GetPolicyTypeOfLossOrDisabilityCode(System.Int32,System.Int32,System.String,System.Int32)">
            <summary>
            Developer - Subhendu : MITS 30839 : Function GetPolicyTypeOfLossOrDisabilityCode to populate Type of loss or Disablity Code : Start
            </summary>
            <param name="iPolicy"></param>
            <param name="iCovCode"></param>
            <param name="sColumnName"></param>
            <returns></returns>
        </member>
        <member name="M:Riskmaster.Application.DataIntegrator.Settings.GetAdditionalClaimantRoleCodes">
            <summary>
            This function is used to populate drop downs on ISOClaimPartyType.aspx
            </summary>
            <returns></returns>
        </member>
        <member name="M:Riskmaster.Application.DataIntegrator.Settings.GetMaxId(System.String,System.String)">
            <summary>
            // Developer - Subhendu : MITS 30839 : Function GetMaxId to get maximum of a provided column in a table  : Start
            </summary>
            <param name="sColumnname"></param>
            <param name="sTablename"></param>
            <returns></returns>
        </member>
        <member name="M:Riskmaster.Application.DataIntegrator.Settings.GetComponentPath(System.String)">
            <summary>
            npradeepshar - MITS 23121
            </summary>
            <param name="strComponent">path of the local registry file</param>
            <returns></returns>
        </member>
        <member name="M:Riskmaster.Application.DataIntegrator.Settings.CleanUpOptionset(System.Int32,System.String)">
            <summary>
            Vsoni5 - MITS 23347, 23357, 23358,23364, 23365, 23439
            </summary>
            <param name="iOptionsetId">Optionset Id to clear</param>
            <param name="RMConnectionString">ConnectionString to RMX DB</param>
            <returns></returns>
            
        </member>
        <member name="M:Riskmaster.Application.DataIntegrator.Settings.CleanUpTaskMgr(System.Int32,System.String)">
            <summary>
            Vsoni5 - MITS 23347, 23357, 23358,23364, 23365, 23439
            </summary>
            <param name="iOptionsetId">Optionset Id to clear</param>
            <param name="sTaskManagerDataSource">ConnectionString to TaskManager DB</param>
            <returns></returns>
            
        </member>
        <member name="M:Riskmaster.Application.DataIntegrator.Settings.CleanUpReserveMappings(System.Int32,System.String)">
            <summary>
            Vsoni5 - MITS 23347, 23357, 23358,23364, 23365, 23439
            </summary>
            <param name="iOptionsetId">Optionset Id to clear</param>
            <param name="RMConnectionString">ConnectionString to RMX Staging DB</param>
            <returns></returns>
            
        </member>
        <member name="M:Riskmaster.Application.DataIntegrator.Settings.CleanUpMSAccessStaging(System.Int32,System.String,System.Collections.Generic.Dictionary{System.String,System.String})">
            <summary>
            Vsoni5 - MITS 23347, 23357, 23358,23364, 23365, 23439
            </summary>
            <param name="iOptionsetId">Optionset Id to clear</param>
            <param name="sAccessStagingDataSource">ConnectionString to Access Staging DB</param>
            <returns></returns>
            
        </member>
        <member name="M:Riskmaster.Application.DataIntegrator.Settings.GetDDSReserveMappings(System.Int32)">
            <summary>
            Gets DDS Reserve Mappings MITS 21553
            npradeepshar 03/24/2011 Merging changes fROM R6PS1
            </summary>
            <param name="p_iOptionSetID"></param>
            <returns></returns>
        </member>
        <member name="M:Riskmaster.Application.DataIntegrator.Settings.GetTaxIds(System.String,System.String)">
            <summary>
            Vsoni5 : MITS 25785.
            </summary>
            <param name="connectionString"> ConnectionString to the RMX Database</param>
            <param name="sEntityList">Comma seperated list of Payer Entity Ids selected on UI</param>
            <returns>This function return dataset containing TaxID, Abbr. and Last Name of payer</returns>
        </member>
        <member name="M:Riskmaster.Application.DataIntegrator.Settings.SaveClaimTypeCode(System.String,System.Int32,System.Boolean,System.Int32)">
            <summary>
            Developer :- Subhendu | Module - DA CLAIM EXPORT CSStars | Function - Save/Update Claim Type Code into RMX DB(DA_CLAIM_EXPORT_CLAIM_TYPE).
            </summary>
            <param name="sCodeID"></param>
            <param name="iLOB"></param>
            <param name="bChkreEdit"></param>
            <param name="iOptionset"></param>
        </member>
        <member name="M:Riskmaster.Application.DataIntegrator.Settings.SaveReserveType(System.String,System.Int32,System.Boolean,System.Int32)">
            <summary>
            Developer :- Subhendu | Module - DA CLAIM EXPORT CSStars |Function - Save/Update Reserve Type into RMX DB(DA_CLAIM_EXPORT_RESERVE_TYPE).
            </summary>
            <param name="sReserveType"></param>
            <param name="iLOB"></param>
            <param name="bChkreEdit"></param>
            <param name="iOptionset"></param>
        </member>
        <member name="M:Riskmaster.Application.DataIntegrator.Settings.GetClaimTypeOnCriteriaEdit(System.Int32,System.Int32)">
            <summary>
            Developer :- Subhendu | Module - DA CLAIM EXPORT CSStars | Function - Retrieve Claim type code from RMX DB(DA_CLAIM_EXPORT_CLAIM_TYPE).
            </summary>
            <param name="iLOB"></param>
            <param name="iOptionsetID"></param>
            <returns></returns>
        </member>
        <member name="M:Riskmaster.Application.DataIntegrator.Settings.GetReserveTypeOnCriteriaEdit(System.Int32,System.Int32)">
            <summary>
            Developer :- Subhendu| Module - DA CLAIM EXPORT CSStars | Function - Retrieve Reserve type from RMX DB(DA_CLAIM_EXPORT_RESERVE_TYPE).
            </summary>
            <param name="iLOB"></param>
            <param name="iOptionsetID"></param>
            <returns></returns>
        </member>
        <member name="M:Riskmaster.Application.DataIntegrator.Settings.CleanUpDAClaimExportTables(System.Boolean,System.Int32)">
            <summary>
            Developer :- Subhendu| Module - DA CLAIM EXPORT CSSTars | Function - Always Clean these tables DA_CLAIM_EXPORT_ORG_HIERARCHY,DA_CLAIM_EXPORT_CLAIM_TYPE,DA_CLAIM_EXPORT_CLAIM_TYPE before saving optionset.
            </summary>
            <param name="bChkreEdit"></param>
            <param name="iOptionset"></param>
        </member>
        <member name="M:Riskmaster.Application.DataIntegrator.Settings.Get(System.Xml.XmlDocument)">
            <summary>
            Developer :- Subhendu| Module - DA CLAIM EXPORT CSStars | Function - Get Org Releted info to display on page load
            </summary>
            <param name="p_objXmlDocument"></param>
            <returns></returns>
        </member>
        <member name="M:Riskmaster.Application.DataIntegrator.Settings.GetCEOrg(System.Xml.XmlDocument)">
            <summary>
            Developer :- Subhendu| Module - DA CLAIM EXPORT CSStars | Function - Get Optionset criteria for edit optionset case
            </summary>
            <param name="p_objXmlDocument"></param>
            <returns></returns>
        </member>
        <member name="M:Riskmaster.Application.DataIntegrator.Settings.GetCEOrg(System.String,System.Int32,System.Int32,System.Xml.XmlDocument)">
            <summary>
            Developer :- Subhendu| Module - DA CLAIM EXPORT CSStars | Function - Get Optionset criteria for edit optionset case
            </summary>
            <param name="sTableName"></param>
            <param name="iOptionsetID"></param>
            <param name="iEntityID"></param>
            <param name="objXmlDoc"></param>
        </member>
        <member name="M:Riskmaster.Application.DataIntegrator.Settings.Get(System.String,System.String,System.String,System.String,System.Int32,System.Xml.XmlDocument)">
            <summary>
            Developer :- Subhendu| Module - DA CLAIM EXPORT CSStars | Function - Get the saved optionset from DA_CLAIM_EXPORT_ORG_HIERARCHY table and create new node listrow for each record in the XML and pass it to parent page.
            </summary>
            <param name="sFields"></param>
            <param name="sTableName"></param>
            <param name="sWhereClause"></param>
            <param name="sOrderbyClause"></param>
            <param name="iOptionsetID"></param>
            <param name="p_objXmlDocument"></param>
        </member>
        <member name="M:Riskmaster.Application.DataIntegrator.Settings.Save(System.Xml.XmlDocument)">
            <summary>
            Developer :- Subhendu| Module - DA CLAIM EXPORT CSStars | Function - Save Org Related information into table DA_CLAIM_EXPORT_ORG_HIERARCHY.
            </summary>
            <param name="p_objXmlDocument"></param>
            <returns></returns>
        </member>
        <member name="M:Riskmaster.Application.DataIntegrator.Settings.Delete(System.Xml.XmlDocument)">
            <summary>
            Developer :- Subhendu| Module - DA CLAIM EXPORT CSStars | Function - Delete selected enty from table DA_CLAIM_EXPORT_ORG_HIERARCHY.
            </summary>
            <param name="p_objXmlDocument"></param>
            <returns></returns>
        </member>
        <member name="M:Riskmaster.Application.DataIntegrator.Settings.DeleteGridEntry(System.String,System.String)">
            <summary>
            Developer :- Subhendu| Module - DA CLAIM EXPORT CSStars | Function - Delete selected enty from table DA_CLAIM_EXPORT_ORG_HIERARCHY according to provided where clause.
            </summary>
            <param name="sWhereClause"></param>
            <param name="sTableName"></param>
            <returns></returns>
        </member>
        <member name="M:Riskmaster.Application.DataIntegrator.Settings.CleanDataGridonCancel(System.Xml.XmlDocument)">
            <summary>
            Developer :- Subhendu| Module - DA CLAIM EXPORT CSStars | Function - Always Clean these tables DA_CLAIM_EXPORT_ORG_HIERARCHY on Optionset Cancellation.
            </summary>
            <param name="p_objXmlDocument"></param>
            <returns></returns>
        </member>
        <member name="M:Riskmaster.Application.DataIntegrator.Settings.SaveCEDeptTable(System.Boolean,System.Int32)">
            <summary>
            Developer :- Subhendu| Module - DA CLAIM EXPORT CSStars | Function - Clean and Insert all dept into DA_CLAIM_EXPORT_DEPARTMENT. Update DEL_FLAG for DA_CLAIM_EXPORT_ORG_HIERARCHY
            </summary>
            <param name="bChkreEdit">False: Saving Optionset for 1st time. True : Editing the Optionset</param>
            <param name="iOptionSetID">Optionset carried from UI</param>
        </member>
        <member name="M:Riskmaster.Application.DataIntegrator.Settings.GetPolicyLOB(System.String)">
            <summary>
            // Developer - Subhendu/Ihtesham : MITS 30839 : Function GetPolicyLOB to Fetch POLICY LOB : Start
            </summary>
            <param name="stablename"></param>
            <returns></returns>
        </member>
        <member name="M:Riskmaster.Application.DataIntegrator.Settings.GetShortCode_ISO(System.Int32)">
            <summary>
            // Developer - Subhendu/Ihtesham : MITS 30839 : Function GetShortCode_ISO to fetch Short code and Code desc for a provided Code id : Start
            </summary>
            <param name="iCodeID"></param>
            <returns></returns>
        </member>
        <member name="M:Riskmaster.Application.DataIntegrator.Settings.GetDesc_ISO(System.String,System.String,System.String,System.String)">
            <summary>
            // Developer - Subhendu/Ihtesham : MITS 30839 : Function GetDesc_ISO to fetch Description from ISO POLICY CODES/ISO COVERAGE CODES/ISO LOSS CODES: Start
            </summary>
            <param name="sPolicy"></param>
            <param name="sCoverage"></param>
            <param name="sLoss"></param>
            <param name="stablename"></param>
            <returns></returns>
        </member>
        <member name="M:Riskmaster.Application.DataIntegrator.Settings.GetShortCode_ISO_PSN(System.Int32)">
            <summary>
            // Developer - Subhendu/Ihtesham : MITS 30839 : Function ISOGet read data to display grid : Start
            </summary>
            <param name="sFields"></param>
            <param name="sTableName"></param>
            <param name="sOrderbyClause"></param>
            <param name="p_objXmlDocument"></param>
        </member>
        <member name="M:Riskmaster.Application.DataIntegrator.Settings.GetLastRunTime(System.Int32)">
            <summary>
            Vsoni5 : MITS 24981
            This function return LAst run date for the optionset supplied as a parameter.
            </summary>
            <param name="iOptionSetId"></param>
            <returns></returns>
        </member>
        <member name="M:Riskmaster.Application.DataIntegrator.Settings.IsCarrier">
            <summary>
            // Developer - Subhendu : MITS 30839 : Function bIsCarrier to check whether Carrier setting enabled or not : Start
            </summary>
            <returns></returns>
        </member>
        <member name="M:Riskmaster.Application.DataIntegrator.Settings.ISOSave(System.Xml.XmlDocument)">
            <summary>
            // Developer - Subhendu/Ihtesham : MITS 30839 : Function ISOSave Save selected data into RMA DB : Start
            </summary>
            <param name="p_objXmlDocument"></param>
            <returns></returns>
        </member>
        <member name="T:Riskmaster.Application.DataIntegrator.Global">
            <summary>
              A strongly-typed resource class, for looking up localized strings, etc.
            </summary>
        </member>
        <member name="P:Riskmaster.Application.DataIntegrator.Global.ResourceManager">
            <summary>
              Returns the cached ResourceManager instance used by this class.
            </summary>
        </member>
        <member name="P:Riskmaster.Application.DataIntegrator.Global.Culture">
            <summary>
              Overrides the current thread's CurrentUICulture property for all
              resource lookups using this strongly typed resource class.
            </summary>
        </member>
        <member name="P:Riskmaster.Application.DataIntegrator.Global.Settings_RetrieveFile_Error">
            <summary>
              Looks up a localized string similar to An error has occurred while fetching the contents of the file..
            </summary>
        </member>
        <member name="P:Riskmaster.Application.DataIntegrator.Global.Settings_RetrieveFile_SourceFileNotExist">
            <summary>
              Looks up a localized string similar to An error has occurred while fetching the contents of the file. File does not exist in document storage..
            </summary>
        </member>
    </members>
</doc>
